digraph components {
	overlap=false;
	sep=0.3;
	node [shape=rectangle];
	
	// Nodes
	base [label="Base Board"];
	software [label="Software"];
	controller [label="Controller"]
	
	subgraph { rank=same;
		device1 [label="Logic Device" shape=oval];
		device2 [label="Logic Device" shape=oval];
		device3 [label="Logic Device" shape=oval];
	}
	
	// Edges
	software -> controller [dir=both];
	controller -> base [dir=both];
	base -> {device1 device2 device3} [dir=both];
	
}