G04 #@! TF.GenerationSoftware,KiCad,Pcbnew,(2017-02-14 revision 58ed546)-master*
G04 #@! TF.CreationDate,2017-02-15T21:14:59-07:00*
G04 #@! TF.ProjectId,lid-panel,6C69642D70616E656C2E6B696361645F,1*
G04 #@! TF.FileFunction,Soldermask,Top*
G04 #@! TF.FilePolarity,Negative*
%FSLAX46Y46*%
G04 Gerber Fmt 4.6, Leading zero omitted, Abs format (unit mm)*
G04 Created by KiCad (PCBNEW (2017-02-14 revision 58ed546)-master) date Wednesday, February 15, 2017 'PMt' 09:14:59 PM*
%MOMM*%
%LPD*%
G01*
G04 APERTURE LIST*
%ADD10C,0.100000*%
%ADD11C,8.400000*%
%ADD12C,2.000000*%
%ADD13R,2.000000X2.000000*%
%ADD14O,2.000000X2.000000*%
%ADD15C,1.800000*%
%ADD16O,1.800000X1.800000*%
%ADD17O,1.901140X2.899360*%
%ADD18C,1.924000*%
%ADD19O,2.900000X1.900000*%
%ADD20R,1.900000X1.900000*%
%ADD21O,1.901140X1.299160*%
%ADD22O,2.899360X1.901140*%
%ADD23O,1.900000X2.900000*%
%ADD24O,1.299160X1.901140*%
%ADD25R,2.200000X2.200000*%
%ADD26C,2.200000*%
%ADD27C,4.400000*%
%ADD28R,1.299160X1.901140*%
%ADD29R,2.600000X2.600000*%
%ADD30O,2.600000X2.600000*%
%ADD31R,1.600000X2.900000*%
%ADD32C,1.750000*%
%ADD33R,1.901140X1.299160*%
%ADD34R,2.900000X1.600000*%
%ADD35O,2.200000X2.200000*%
G04 APERTURE END LIST*
D10*
D11*
X58363491Y-52014053D03*
X58363491Y-72334053D03*
X38043491Y-72334053D03*
X38043491Y-52014053D03*
D12*
X32423491Y-24074053D03*
D13*
X30423491Y-24074053D03*
D12*
X45663491Y-53244053D03*
X45663491Y-50744053D03*
D14*
X40583491Y-64714053D03*
D13*
X32963491Y-64714053D03*
X32963491Y-62174053D03*
D14*
X40583491Y-62174053D03*
X40583491Y-59634053D03*
D13*
X32963491Y-59634053D03*
D15*
X35503491Y-34234053D03*
D16*
X35503491Y-29154053D03*
X27883491Y-74874053D03*
D15*
X27883491Y-69794053D03*
X48203491Y-29154053D03*
D16*
X53283491Y-29154053D03*
X53283491Y-31694053D03*
D15*
X48203491Y-31694053D03*
X48203491Y-22804053D03*
D16*
X53283491Y-22804053D03*
X53283491Y-25344053D03*
D15*
X48203491Y-25344053D03*
D17*
X43123491Y-24074053D03*
X38043491Y-24074053D03*
X40583491Y-24074053D03*
D14*
X58363491Y-36774053D03*
X55823491Y-36774053D03*
X53283491Y-36774053D03*
X50743491Y-36774053D03*
X48203491Y-36774053D03*
X45663491Y-36774053D03*
X43123491Y-36774053D03*
X40583491Y-36774053D03*
X40583491Y-44394053D03*
X43123491Y-44394053D03*
X45663491Y-44394053D03*
X48203491Y-44394053D03*
X50743491Y-44394053D03*
X53283491Y-44394053D03*
X55823491Y-44394053D03*
X58363491Y-44394053D03*
D18*
X48203491Y-62174053D03*
X45663491Y-62174053D03*
X50743491Y-62174053D03*
X50743491Y-64714053D03*
X50743491Y-59634053D03*
X48203491Y-59634053D03*
X45663491Y-59634053D03*
X45663491Y-64714053D03*
X48203491Y-64714053D03*
D19*
X60903491Y-60904053D03*
X60903491Y-63444053D03*
X60903491Y-58364053D03*
X60903491Y-65984053D03*
X27883491Y-65984053D03*
X27883491Y-58364053D03*
X27883491Y-63444053D03*
X27883491Y-60904053D03*
D20*
X29667148Y-31606146D03*
X27889148Y-31606146D03*
X26111148Y-31606146D03*
X26111148Y-34146146D03*
X27889148Y-34146146D03*
X29667148Y-34146146D03*
X29667148Y-36686146D03*
X27889148Y-36686146D03*
X26111148Y-36686146D03*
X26111148Y-39226146D03*
X27889148Y-39226146D03*
X29667148Y-39226146D03*
X29667148Y-41766146D03*
X27889148Y-41766146D03*
X26111148Y-41766146D03*
X26111148Y-44306146D03*
X27889148Y-44306146D03*
X29667148Y-44306146D03*
X29667148Y-46846146D03*
X27889148Y-46846146D03*
X26111148Y-46846146D03*
X26111148Y-49386146D03*
X27889148Y-49386146D03*
X29667148Y-49386146D03*
D21*
X58363491Y-25344053D03*
X58363491Y-22804053D03*
X58363491Y-24074053D03*
X58363491Y-30424053D03*
X58363491Y-29154053D03*
X58363491Y-31694053D03*
D11*
X58363491Y-118054053D03*
X58363491Y-138374053D03*
X38043491Y-138374053D03*
X38043491Y-118054053D03*
D12*
X32423491Y-90114053D03*
D13*
X30423491Y-90114053D03*
D12*
X45663491Y-119284053D03*
X45663491Y-116784053D03*
D14*
X40583491Y-130754053D03*
D13*
X32963491Y-130754053D03*
X32963491Y-128214053D03*
D14*
X40583491Y-128214053D03*
X40583491Y-125674053D03*
D13*
X32963491Y-125674053D03*
D15*
X35503491Y-100274053D03*
D16*
X35503491Y-95194053D03*
X27883491Y-140914053D03*
D15*
X27883491Y-135834053D03*
X48203491Y-95194053D03*
D16*
X53283491Y-95194053D03*
X53283491Y-97734053D03*
D15*
X48203491Y-97734053D03*
X48203491Y-88844053D03*
D16*
X53283491Y-88844053D03*
X53283491Y-91384053D03*
D15*
X48203491Y-91384053D03*
D17*
X43123491Y-90114053D03*
X38043491Y-90114053D03*
X40583491Y-90114053D03*
D14*
X58363491Y-102814053D03*
X55823491Y-102814053D03*
X53283491Y-102814053D03*
X50743491Y-102814053D03*
X48203491Y-102814053D03*
X45663491Y-102814053D03*
X43123491Y-102814053D03*
X40583491Y-102814053D03*
X40583491Y-110434053D03*
X43123491Y-110434053D03*
X45663491Y-110434053D03*
X48203491Y-110434053D03*
X50743491Y-110434053D03*
X53283491Y-110434053D03*
X55823491Y-110434053D03*
X58363491Y-110434053D03*
D18*
X48203491Y-128214053D03*
X45663491Y-128214053D03*
X50743491Y-128214053D03*
X50743491Y-130754053D03*
X50743491Y-125674053D03*
X48203491Y-125674053D03*
X45663491Y-125674053D03*
X45663491Y-130754053D03*
X48203491Y-130754053D03*
D19*
X60903491Y-126944053D03*
X60903491Y-129484053D03*
X60903491Y-124404053D03*
X60903491Y-132024053D03*
X27883491Y-132024053D03*
X27883491Y-124404053D03*
X27883491Y-129484053D03*
X27883491Y-126944053D03*
D20*
X29667148Y-97646146D03*
X27889148Y-97646146D03*
X26111148Y-97646146D03*
X26111148Y-100186146D03*
X27889148Y-100186146D03*
X29667148Y-100186146D03*
X29667148Y-102726146D03*
X27889148Y-102726146D03*
X26111148Y-102726146D03*
X26111148Y-105266146D03*
X27889148Y-105266146D03*
X29667148Y-105266146D03*
X29667148Y-107806146D03*
X27889148Y-107806146D03*
X26111148Y-107806146D03*
X26111148Y-110346146D03*
X27889148Y-110346146D03*
X29667148Y-110346146D03*
X29667148Y-112886146D03*
X27889148Y-112886146D03*
X26111148Y-112886146D03*
X26111148Y-115426146D03*
X27889148Y-115426146D03*
X29667148Y-115426146D03*
D21*
X58363491Y-91384053D03*
X58363491Y-88844053D03*
X58363491Y-90114053D03*
X58363491Y-96464053D03*
X58363491Y-95194053D03*
X58363491Y-97734053D03*
D11*
X55917055Y-156071803D03*
X76237055Y-156071803D03*
X76237055Y-176391803D03*
X55917055Y-176391803D03*
D12*
X27977055Y-182011803D03*
D13*
X27977055Y-184011803D03*
D12*
X57147055Y-168771803D03*
X54647055Y-168771803D03*
D14*
X68617055Y-173851803D03*
D13*
X68617055Y-181471803D03*
X66077055Y-181471803D03*
D14*
X66077055Y-173851803D03*
X63537055Y-173851803D03*
D13*
X63537055Y-181471803D03*
D15*
X38137055Y-178931803D03*
D16*
X33057055Y-178931803D03*
X78777055Y-186551803D03*
D15*
X73697055Y-186551803D03*
X33057055Y-166231803D03*
D16*
X33057055Y-161151803D03*
X35597055Y-161151803D03*
D15*
X35597055Y-166231803D03*
X26707055Y-166231803D03*
D16*
X26707055Y-161151803D03*
X29247055Y-161151803D03*
D15*
X29247055Y-166231803D03*
D22*
X27977055Y-171311803D03*
X27977055Y-176391803D03*
X27977055Y-173851803D03*
D14*
X40677055Y-156071803D03*
X40677055Y-158611803D03*
X40677055Y-161151803D03*
X40677055Y-163691803D03*
X40677055Y-166231803D03*
X40677055Y-168771803D03*
X40677055Y-171311803D03*
X40677055Y-173851803D03*
X48297055Y-173851803D03*
X48297055Y-171311803D03*
X48297055Y-168771803D03*
X48297055Y-166231803D03*
X48297055Y-163691803D03*
X48297055Y-161151803D03*
X48297055Y-158611803D03*
X48297055Y-156071803D03*
D18*
X66077055Y-166231803D03*
X66077055Y-168771803D03*
X66077055Y-163691803D03*
X68617055Y-163691803D03*
X63537055Y-163691803D03*
X63537055Y-166231803D03*
X63537055Y-168771803D03*
X68617055Y-168771803D03*
X68617055Y-166231803D03*
D23*
X64807055Y-153531803D03*
X67347055Y-153531803D03*
X62267055Y-153531803D03*
X69887055Y-153531803D03*
X69887055Y-186551803D03*
X62267055Y-186551803D03*
X67347055Y-186551803D03*
X64807055Y-186551803D03*
D20*
X35509148Y-184768146D03*
X35509148Y-186546146D03*
X35509148Y-188324146D03*
X38049148Y-188324146D03*
X38049148Y-186546146D03*
X38049148Y-184768146D03*
X40589148Y-184768146D03*
X40589148Y-186546146D03*
X40589148Y-188324146D03*
X43129148Y-188324146D03*
X43129148Y-186546146D03*
X43129148Y-184768146D03*
X45669148Y-184768146D03*
X45669148Y-186546146D03*
X45669148Y-188324146D03*
X48209148Y-188324146D03*
X48209148Y-186546146D03*
X48209148Y-184768146D03*
X50749148Y-184768146D03*
X50749148Y-186546146D03*
X50749148Y-188324146D03*
X53289148Y-188324146D03*
X53289148Y-186546146D03*
X53289148Y-184768146D03*
D24*
X29247055Y-156071803D03*
X26707055Y-156071803D03*
X27977055Y-156071803D03*
X34327055Y-156071803D03*
X33057055Y-156071803D03*
X35597055Y-156071803D03*
D25*
X219597544Y-175514562D03*
D26*
X219597544Y-172974562D03*
D25*
X167527544Y-157734562D03*
D26*
X167527544Y-160274562D03*
D25*
X167527544Y-172974562D03*
D26*
X167527544Y-175514562D03*
X167527544Y-190754562D03*
D25*
X167527544Y-188214562D03*
D27*
X169432544Y-165354562D03*
X217692544Y-156464562D03*
X169432544Y-180594562D03*
D24*
X213247544Y-181864562D03*
X211977544Y-181864562D03*
D28*
X214517544Y-181864562D03*
D12*
X177687544Y-181134562D03*
D13*
X177687544Y-183134562D03*
D12*
X175187544Y-169164562D03*
X177687544Y-169164562D03*
D13*
X213247544Y-166624562D03*
D14*
X205627544Y-166624562D03*
X205627544Y-162814562D03*
D13*
X213247544Y-162814562D03*
X213247544Y-159004562D03*
D14*
X205627544Y-159004562D03*
X205627544Y-155194562D03*
D13*
X213247544Y-155194562D03*
D29*
X182767544Y-166624562D03*
D30*
X192927544Y-166624562D03*
X192927544Y-159004562D03*
D29*
X182767544Y-159004562D03*
X182767544Y-155194562D03*
D30*
X192927544Y-155194562D03*
X192927544Y-162814562D03*
D29*
X182767544Y-162814562D03*
D14*
X184037544Y-183134562D03*
X206897544Y-190754562D03*
X186577544Y-183134562D03*
X204357544Y-190754562D03*
X189117544Y-183134562D03*
X201817544Y-190754562D03*
X191657544Y-183134562D03*
X199277544Y-190754562D03*
X194197544Y-183134562D03*
X196737544Y-190754562D03*
X196737544Y-183134562D03*
X194197544Y-190754562D03*
X199277544Y-183134562D03*
X191657544Y-190754562D03*
X201817544Y-183134562D03*
X189117544Y-190754562D03*
X204357544Y-183134562D03*
X186577544Y-190754562D03*
X206897544Y-183134562D03*
D13*
X184037544Y-190754562D03*
D25*
X185307544Y-175514562D03*
D26*
X185307544Y-172974562D03*
X205627544Y-172974562D03*
D25*
X205627544Y-175514562D03*
D31*
X217017544Y-186964562D03*
X212017544Y-186964562D03*
D32*
X211117544Y-189714562D03*
X217917544Y-189714562D03*
D31*
X214517544Y-186964562D03*
D18*
X195467544Y-174244562D03*
X195467544Y-176784562D03*
X195467544Y-171704562D03*
X198007544Y-171704562D03*
X192927544Y-171704562D03*
X192927544Y-174244562D03*
X192927544Y-176784562D03*
X198007544Y-176784562D03*
X198007544Y-174244562D03*
D15*
X171337544Y-175514562D03*
D16*
X171337544Y-170434562D03*
X171337544Y-155194562D03*
D15*
X171337544Y-160274562D03*
X215787544Y-178054562D03*
D16*
X210707544Y-178054562D03*
X215787544Y-175514562D03*
D15*
X210707544Y-175514562D03*
X182767544Y-179324562D03*
D16*
X187847544Y-179324562D03*
X203087544Y-179324562D03*
D15*
X208167544Y-179324562D03*
X171337544Y-190754562D03*
D16*
X171337544Y-185674562D03*
X179592544Y-188849562D03*
D15*
X174512544Y-188849562D03*
X196737544Y-155194562D03*
D16*
X201817544Y-155194562D03*
X201817544Y-159004562D03*
D15*
X196737544Y-159004562D03*
X196737544Y-162814562D03*
D16*
X201817544Y-162814562D03*
X201817544Y-166624562D03*
D15*
X196737544Y-166624562D03*
X219597544Y-179324562D03*
D16*
X219597544Y-184404562D03*
X217057544Y-166624562D03*
D15*
X217057544Y-161544562D03*
D22*
X177052544Y-158369562D03*
X177052544Y-163449562D03*
X177052544Y-160909562D03*
D28*
X211977544Y-171704562D03*
D24*
X214517544Y-171704562D03*
X213247544Y-171704562D03*
D21*
X177687544Y-175514562D03*
X177687544Y-174244562D03*
D33*
X177687544Y-176784562D03*
D25*
X219541597Y-126803071D03*
D26*
X219541597Y-124263071D03*
D25*
X167471597Y-109023071D03*
D26*
X167471597Y-111563071D03*
D25*
X167471597Y-124263071D03*
D26*
X167471597Y-126803071D03*
X167471597Y-142043071D03*
D25*
X167471597Y-139503071D03*
D27*
X169376597Y-116643071D03*
X217636597Y-107753071D03*
X169376597Y-131883071D03*
D24*
X213191597Y-133153071D03*
X211921597Y-133153071D03*
D28*
X214461597Y-133153071D03*
D12*
X177631597Y-132423071D03*
D13*
X177631597Y-134423071D03*
D12*
X175131597Y-120453071D03*
X177631597Y-120453071D03*
D13*
X213191597Y-117913071D03*
D14*
X205571597Y-117913071D03*
X205571597Y-114103071D03*
D13*
X213191597Y-114103071D03*
X213191597Y-110293071D03*
D14*
X205571597Y-110293071D03*
X205571597Y-106483071D03*
D13*
X213191597Y-106483071D03*
D29*
X182711597Y-117913071D03*
D30*
X192871597Y-117913071D03*
X192871597Y-110293071D03*
D29*
X182711597Y-110293071D03*
X182711597Y-106483071D03*
D30*
X192871597Y-106483071D03*
X192871597Y-114103071D03*
D29*
X182711597Y-114103071D03*
D14*
X183981597Y-134423071D03*
X206841597Y-142043071D03*
X186521597Y-134423071D03*
X204301597Y-142043071D03*
X189061597Y-134423071D03*
X201761597Y-142043071D03*
X191601597Y-134423071D03*
X199221597Y-142043071D03*
X194141597Y-134423071D03*
X196681597Y-142043071D03*
X196681597Y-134423071D03*
X194141597Y-142043071D03*
X199221597Y-134423071D03*
X191601597Y-142043071D03*
X201761597Y-134423071D03*
X189061597Y-142043071D03*
X204301597Y-134423071D03*
X186521597Y-142043071D03*
X206841597Y-134423071D03*
D13*
X183981597Y-142043071D03*
D25*
X185251597Y-126803071D03*
D26*
X185251597Y-124263071D03*
X205571597Y-124263071D03*
D25*
X205571597Y-126803071D03*
D31*
X216961597Y-138253071D03*
X211961597Y-138253071D03*
D32*
X211061597Y-141003071D03*
X217861597Y-141003071D03*
D31*
X214461597Y-138253071D03*
D18*
X195411597Y-125533071D03*
X195411597Y-128073071D03*
X195411597Y-122993071D03*
X197951597Y-122993071D03*
X192871597Y-122993071D03*
X192871597Y-125533071D03*
X192871597Y-128073071D03*
X197951597Y-128073071D03*
X197951597Y-125533071D03*
D15*
X171281597Y-126803071D03*
D16*
X171281597Y-121723071D03*
X171281597Y-106483071D03*
D15*
X171281597Y-111563071D03*
X215731597Y-129343071D03*
D16*
X210651597Y-129343071D03*
X215731597Y-126803071D03*
D15*
X210651597Y-126803071D03*
X182711597Y-130613071D03*
D16*
X187791597Y-130613071D03*
X203031597Y-130613071D03*
D15*
X208111597Y-130613071D03*
X171281597Y-142043071D03*
D16*
X171281597Y-136963071D03*
X179536597Y-140138071D03*
D15*
X174456597Y-140138071D03*
X196681597Y-106483071D03*
D16*
X201761597Y-106483071D03*
X201761597Y-110293071D03*
D15*
X196681597Y-110293071D03*
X196681597Y-114103071D03*
D16*
X201761597Y-114103071D03*
X201761597Y-117913071D03*
D15*
X196681597Y-117913071D03*
X219541597Y-130613071D03*
D16*
X219541597Y-135693071D03*
X217001597Y-117913071D03*
D15*
X217001597Y-112833071D03*
D22*
X176996597Y-109658071D03*
X176996597Y-114738071D03*
X176996597Y-112198071D03*
D28*
X211921597Y-122993071D03*
D24*
X214461597Y-122993071D03*
X213191597Y-122993071D03*
D21*
X177631597Y-126803071D03*
X177631597Y-125533071D03*
D33*
X177631597Y-128073071D03*
D25*
X219597544Y-78740562D03*
D26*
X219597544Y-76200562D03*
D25*
X167527544Y-60960562D03*
D26*
X167527544Y-63500562D03*
D25*
X167527544Y-76200562D03*
D26*
X167527544Y-78740562D03*
X167527544Y-93980562D03*
D25*
X167527544Y-91440562D03*
D27*
X169432544Y-68580562D03*
X217692544Y-59690562D03*
X169432544Y-83820562D03*
D24*
X213247544Y-85090562D03*
X211977544Y-85090562D03*
D28*
X214517544Y-85090562D03*
D12*
X177687544Y-84360562D03*
D13*
X177687544Y-86360562D03*
D12*
X175187544Y-72390562D03*
X177687544Y-72390562D03*
D13*
X213247544Y-69850562D03*
D14*
X205627544Y-69850562D03*
X205627544Y-66040562D03*
D13*
X213247544Y-66040562D03*
X213247544Y-62230562D03*
D14*
X205627544Y-62230562D03*
X205627544Y-58420562D03*
D13*
X213247544Y-58420562D03*
D29*
X182767544Y-69850562D03*
D30*
X192927544Y-69850562D03*
X192927544Y-62230562D03*
D29*
X182767544Y-62230562D03*
X182767544Y-58420562D03*
D30*
X192927544Y-58420562D03*
X192927544Y-66040562D03*
D29*
X182767544Y-66040562D03*
D14*
X184037544Y-86360562D03*
X206897544Y-93980562D03*
X186577544Y-86360562D03*
X204357544Y-93980562D03*
X189117544Y-86360562D03*
X201817544Y-93980562D03*
X191657544Y-86360562D03*
X199277544Y-93980562D03*
X194197544Y-86360562D03*
X196737544Y-93980562D03*
X196737544Y-86360562D03*
X194197544Y-93980562D03*
X199277544Y-86360562D03*
X191657544Y-93980562D03*
X201817544Y-86360562D03*
X189117544Y-93980562D03*
X204357544Y-86360562D03*
X186577544Y-93980562D03*
X206897544Y-86360562D03*
D13*
X184037544Y-93980562D03*
D25*
X185307544Y-78740562D03*
D26*
X185307544Y-76200562D03*
X205627544Y-76200562D03*
D25*
X205627544Y-78740562D03*
D31*
X217017544Y-90190562D03*
X212017544Y-90190562D03*
D32*
X211117544Y-92940562D03*
X217917544Y-92940562D03*
D31*
X214517544Y-90190562D03*
D18*
X195467544Y-77470562D03*
X195467544Y-80010562D03*
X195467544Y-74930562D03*
X198007544Y-74930562D03*
X192927544Y-74930562D03*
X192927544Y-77470562D03*
X192927544Y-80010562D03*
X198007544Y-80010562D03*
X198007544Y-77470562D03*
D15*
X171337544Y-78740562D03*
D16*
X171337544Y-73660562D03*
X171337544Y-58420562D03*
D15*
X171337544Y-63500562D03*
X215787544Y-81280562D03*
D16*
X210707544Y-81280562D03*
X215787544Y-78740562D03*
D15*
X210707544Y-78740562D03*
X182767544Y-82550562D03*
D16*
X187847544Y-82550562D03*
X203087544Y-82550562D03*
D15*
X208167544Y-82550562D03*
X171337544Y-93980562D03*
D16*
X171337544Y-88900562D03*
X179592544Y-92075562D03*
D15*
X174512544Y-92075562D03*
X196737544Y-58420562D03*
D16*
X201817544Y-58420562D03*
X201817544Y-62230562D03*
D15*
X196737544Y-62230562D03*
X196737544Y-66040562D03*
D16*
X201817544Y-66040562D03*
X201817544Y-69850562D03*
D15*
X196737544Y-69850562D03*
X219597544Y-82550562D03*
D16*
X219597544Y-87630562D03*
X217057544Y-69850562D03*
D15*
X217057544Y-64770562D03*
D22*
X177052544Y-61595562D03*
X177052544Y-66675562D03*
X177052544Y-64135562D03*
D28*
X211977544Y-74930562D03*
D24*
X214517544Y-74930562D03*
X213247544Y-74930562D03*
D21*
X177687544Y-78740562D03*
X177687544Y-77470562D03*
D33*
X177687544Y-80010562D03*
D11*
X104083491Y-52014053D03*
X104083491Y-72334053D03*
X83763491Y-72334053D03*
X83763491Y-52014053D03*
D12*
X78143491Y-24074053D03*
D13*
X76143491Y-24074053D03*
D12*
X91383491Y-53244053D03*
X91383491Y-50744053D03*
D14*
X86303491Y-64714053D03*
D13*
X78683491Y-64714053D03*
X78683491Y-62174053D03*
D14*
X86303491Y-62174053D03*
X86303491Y-59634053D03*
D13*
X78683491Y-59634053D03*
D15*
X81223491Y-34234053D03*
D16*
X81223491Y-29154053D03*
X73603491Y-74874053D03*
D15*
X73603491Y-69794053D03*
X93923491Y-29154053D03*
D16*
X99003491Y-29154053D03*
X99003491Y-31694053D03*
D15*
X93923491Y-31694053D03*
X93923491Y-22804053D03*
D16*
X99003491Y-22804053D03*
X99003491Y-25344053D03*
D15*
X93923491Y-25344053D03*
D17*
X88843491Y-24074053D03*
X83763491Y-24074053D03*
X86303491Y-24074053D03*
D14*
X104083491Y-36774053D03*
X101543491Y-36774053D03*
X99003491Y-36774053D03*
X96463491Y-36774053D03*
X93923491Y-36774053D03*
X91383491Y-36774053D03*
X88843491Y-36774053D03*
X86303491Y-36774053D03*
X86303491Y-44394053D03*
X88843491Y-44394053D03*
X91383491Y-44394053D03*
X93923491Y-44394053D03*
X96463491Y-44394053D03*
X99003491Y-44394053D03*
X101543491Y-44394053D03*
X104083491Y-44394053D03*
D18*
X93923491Y-62174053D03*
X91383491Y-62174053D03*
X96463491Y-62174053D03*
X96463491Y-64714053D03*
X96463491Y-59634053D03*
X93923491Y-59634053D03*
X91383491Y-59634053D03*
X91383491Y-64714053D03*
X93923491Y-64714053D03*
D19*
X106623491Y-60904053D03*
X106623491Y-63444053D03*
X106623491Y-58364053D03*
X106623491Y-65984053D03*
X73603491Y-65984053D03*
X73603491Y-58364053D03*
X73603491Y-63444053D03*
X73603491Y-60904053D03*
D20*
X75387148Y-31606146D03*
X73609148Y-31606146D03*
X71831148Y-31606146D03*
X71831148Y-34146146D03*
X73609148Y-34146146D03*
X75387148Y-34146146D03*
X75387148Y-36686146D03*
X73609148Y-36686146D03*
X71831148Y-36686146D03*
X71831148Y-39226146D03*
X73609148Y-39226146D03*
X75387148Y-39226146D03*
X75387148Y-41766146D03*
X73609148Y-41766146D03*
X71831148Y-41766146D03*
X71831148Y-44306146D03*
X73609148Y-44306146D03*
X75387148Y-44306146D03*
X75387148Y-46846146D03*
X73609148Y-46846146D03*
X71831148Y-46846146D03*
X71831148Y-49386146D03*
X73609148Y-49386146D03*
X75387148Y-49386146D03*
D21*
X104083491Y-25344053D03*
X104083491Y-22804053D03*
X104083491Y-24074053D03*
X104083491Y-30424053D03*
X104083491Y-29154053D03*
X104083491Y-31694053D03*
D11*
X104083491Y-118054053D03*
X104083491Y-138374053D03*
X83763491Y-138374053D03*
X83763491Y-118054053D03*
D12*
X78143491Y-90114053D03*
D13*
X76143491Y-90114053D03*
D12*
X91383491Y-119284053D03*
X91383491Y-116784053D03*
D14*
X86303491Y-130754053D03*
D13*
X78683491Y-130754053D03*
X78683491Y-128214053D03*
D14*
X86303491Y-128214053D03*
X86303491Y-125674053D03*
D13*
X78683491Y-125674053D03*
D15*
X81223491Y-100274053D03*
D16*
X81223491Y-95194053D03*
X73603491Y-140914053D03*
D15*
X73603491Y-135834053D03*
X93923491Y-95194053D03*
D16*
X99003491Y-95194053D03*
X99003491Y-97734053D03*
D15*
X93923491Y-97734053D03*
X93923491Y-88844053D03*
D16*
X99003491Y-88844053D03*
X99003491Y-91384053D03*
D15*
X93923491Y-91384053D03*
D17*
X88843491Y-90114053D03*
X83763491Y-90114053D03*
X86303491Y-90114053D03*
D14*
X104083491Y-102814053D03*
X101543491Y-102814053D03*
X99003491Y-102814053D03*
X96463491Y-102814053D03*
X93923491Y-102814053D03*
X91383491Y-102814053D03*
X88843491Y-102814053D03*
X86303491Y-102814053D03*
X86303491Y-110434053D03*
X88843491Y-110434053D03*
X91383491Y-110434053D03*
X93923491Y-110434053D03*
X96463491Y-110434053D03*
X99003491Y-110434053D03*
X101543491Y-110434053D03*
X104083491Y-110434053D03*
D18*
X93923491Y-128214053D03*
X91383491Y-128214053D03*
X96463491Y-128214053D03*
X96463491Y-130754053D03*
X96463491Y-125674053D03*
X93923491Y-125674053D03*
X91383491Y-125674053D03*
X91383491Y-130754053D03*
X93923491Y-130754053D03*
D19*
X106623491Y-126944053D03*
X106623491Y-129484053D03*
X106623491Y-124404053D03*
X106623491Y-132024053D03*
X73603491Y-132024053D03*
X73603491Y-124404053D03*
X73603491Y-129484053D03*
X73603491Y-126944053D03*
D20*
X75387148Y-97646146D03*
X73609148Y-97646146D03*
X71831148Y-97646146D03*
X71831148Y-100186146D03*
X73609148Y-100186146D03*
X75387148Y-100186146D03*
X75387148Y-102726146D03*
X73609148Y-102726146D03*
X71831148Y-102726146D03*
X71831148Y-105266146D03*
X73609148Y-105266146D03*
X75387148Y-105266146D03*
X75387148Y-107806146D03*
X73609148Y-107806146D03*
X71831148Y-107806146D03*
X71831148Y-110346146D03*
X73609148Y-110346146D03*
X75387148Y-110346146D03*
X75387148Y-112886146D03*
X73609148Y-112886146D03*
X71831148Y-112886146D03*
X71831148Y-115426146D03*
X73609148Y-115426146D03*
X75387148Y-115426146D03*
D21*
X104083491Y-91384053D03*
X104083491Y-88844053D03*
X104083491Y-90114053D03*
X104083491Y-96464053D03*
X104083491Y-95194053D03*
X104083491Y-97734053D03*
D11*
X119323491Y-156154053D03*
X139643491Y-156154053D03*
X139643491Y-176474053D03*
X119323491Y-176474053D03*
D12*
X91383491Y-182094053D03*
D13*
X91383491Y-184094053D03*
D12*
X120553491Y-168854053D03*
X118053491Y-168854053D03*
D14*
X132023491Y-173934053D03*
D13*
X132023491Y-181554053D03*
X129483491Y-181554053D03*
D14*
X129483491Y-173934053D03*
X126943491Y-173934053D03*
D13*
X126943491Y-181554053D03*
D15*
X101543491Y-179014053D03*
D16*
X96463491Y-179014053D03*
X142183491Y-186634053D03*
D15*
X137103491Y-186634053D03*
X96463491Y-166314053D03*
D16*
X96463491Y-161234053D03*
X99003491Y-161234053D03*
D15*
X99003491Y-166314053D03*
X90113491Y-166314053D03*
D16*
X90113491Y-161234053D03*
X92653491Y-161234053D03*
D15*
X92653491Y-166314053D03*
D22*
X91383491Y-171394053D03*
X91383491Y-176474053D03*
X91383491Y-173934053D03*
D14*
X104083491Y-156154053D03*
X104083491Y-158694053D03*
X104083491Y-161234053D03*
X104083491Y-163774053D03*
X104083491Y-166314053D03*
X104083491Y-168854053D03*
X104083491Y-171394053D03*
X104083491Y-173934053D03*
X111703491Y-173934053D03*
X111703491Y-171394053D03*
X111703491Y-168854053D03*
X111703491Y-166314053D03*
X111703491Y-163774053D03*
X111703491Y-161234053D03*
X111703491Y-158694053D03*
X111703491Y-156154053D03*
D18*
X129483491Y-166314053D03*
X129483491Y-168854053D03*
X129483491Y-163774053D03*
X132023491Y-163774053D03*
X126943491Y-163774053D03*
X126943491Y-166314053D03*
X126943491Y-168854053D03*
X132023491Y-168854053D03*
X132023491Y-166314053D03*
D23*
X128213491Y-153614053D03*
X130753491Y-153614053D03*
X125673491Y-153614053D03*
X133293491Y-153614053D03*
X133293491Y-186634053D03*
X125673491Y-186634053D03*
X130753491Y-186634053D03*
X128213491Y-186634053D03*
D20*
X98915584Y-184850396D03*
X98915584Y-186628396D03*
X98915584Y-188406396D03*
X101455584Y-188406396D03*
X101455584Y-186628396D03*
X101455584Y-184850396D03*
X103995584Y-184850396D03*
X103995584Y-186628396D03*
X103995584Y-188406396D03*
X106535584Y-188406396D03*
X106535584Y-186628396D03*
X106535584Y-184850396D03*
X109075584Y-184850396D03*
X109075584Y-186628396D03*
X109075584Y-188406396D03*
X111615584Y-188406396D03*
X111615584Y-186628396D03*
X111615584Y-184850396D03*
X114155584Y-184850396D03*
X114155584Y-186628396D03*
X114155584Y-188406396D03*
X116695584Y-188406396D03*
X116695584Y-186628396D03*
X116695584Y-184850396D03*
D24*
X92653491Y-156154053D03*
X90113491Y-156154053D03*
X91383491Y-156154053D03*
X97733491Y-156154053D03*
X96463491Y-156154053D03*
X99003491Y-156154053D03*
D25*
X133237544Y-142240562D03*
D26*
X135777544Y-142240562D03*
D25*
X151017544Y-90170562D03*
D26*
X148477544Y-90170562D03*
D25*
X135777544Y-90170562D03*
D26*
X133237544Y-90170562D03*
X117997544Y-90170562D03*
D25*
X120537544Y-90170562D03*
D27*
X143397544Y-92075562D03*
X152287544Y-140335562D03*
X128157544Y-92075562D03*
D21*
X126887544Y-135890562D03*
X126887544Y-134620562D03*
D33*
X126887544Y-137160562D03*
D12*
X127617544Y-100330562D03*
D13*
X125617544Y-100330562D03*
D12*
X139587544Y-97830562D03*
X139587544Y-100330562D03*
D13*
X142127544Y-135890562D03*
D14*
X142127544Y-128270562D03*
X145937544Y-128270562D03*
D13*
X145937544Y-135890562D03*
X149747544Y-135890562D03*
D14*
X149747544Y-128270562D03*
X153557544Y-128270562D03*
D13*
X153557544Y-135890562D03*
D29*
X142127544Y-105410562D03*
D30*
X142127544Y-115570562D03*
X149747544Y-115570562D03*
D29*
X149747544Y-105410562D03*
X153557544Y-105410562D03*
D30*
X153557544Y-115570562D03*
X145937544Y-115570562D03*
D29*
X145937544Y-105410562D03*
D14*
X125617544Y-106680562D03*
X117997544Y-129540562D03*
X125617544Y-109220562D03*
X117997544Y-127000562D03*
X125617544Y-111760562D03*
X117997544Y-124460562D03*
X125617544Y-114300562D03*
X117997544Y-121920562D03*
X125617544Y-116840562D03*
X117997544Y-119380562D03*
X125617544Y-119380562D03*
X117997544Y-116840562D03*
X125617544Y-121920562D03*
X117997544Y-114300562D03*
X125617544Y-124460562D03*
X117997544Y-111760562D03*
X125617544Y-127000562D03*
X117997544Y-109220562D03*
X125617544Y-129540562D03*
D13*
X117997544Y-106680562D03*
D25*
X133237544Y-107950562D03*
D26*
X135777544Y-107950562D03*
X135777544Y-128270562D03*
D25*
X133237544Y-128270562D03*
D34*
X121787544Y-139660562D03*
X121787544Y-134660562D03*
D32*
X119037544Y-133760562D03*
X119037544Y-140560562D03*
D34*
X121787544Y-137160562D03*
D18*
X134507544Y-118110562D03*
X131967544Y-118110562D03*
X137047544Y-118110562D03*
X137047544Y-120650562D03*
X137047544Y-115570562D03*
X134507544Y-115570562D03*
X131967544Y-115570562D03*
X131967544Y-120650562D03*
X134507544Y-120650562D03*
D15*
X133237544Y-93980562D03*
D16*
X138317544Y-93980562D03*
X153557544Y-93980562D03*
D15*
X148477544Y-93980562D03*
X130697544Y-138430562D03*
D16*
X130697544Y-133350562D03*
X133237544Y-138430562D03*
D15*
X133237544Y-133350562D03*
X129427544Y-105410562D03*
D16*
X129427544Y-110490562D03*
X129427544Y-125730562D03*
D15*
X129427544Y-130810562D03*
X117997544Y-93980562D03*
D16*
X123077544Y-93980562D03*
X119902544Y-102235562D03*
D15*
X119902544Y-97155562D03*
X153557544Y-119380562D03*
D16*
X153557544Y-124460562D03*
X149747544Y-124460562D03*
D15*
X149747544Y-119380562D03*
X145937544Y-119380562D03*
D16*
X145937544Y-124460562D03*
X142127544Y-124460562D03*
D15*
X142127544Y-119380562D03*
X129427544Y-142240562D03*
D16*
X124347544Y-142240562D03*
X142127544Y-139700562D03*
D15*
X147207544Y-139700562D03*
D17*
X150382544Y-99695562D03*
X145302544Y-99695562D03*
X147842544Y-99695562D03*
D33*
X137047544Y-134620562D03*
D21*
X137047544Y-137160562D03*
X137047544Y-135890562D03*
D24*
X133237544Y-100330562D03*
X134507544Y-100330562D03*
D28*
X131967544Y-100330562D03*
D11*
X149803491Y-52014053D03*
X149803491Y-72334053D03*
X129483491Y-72334053D03*
X129483491Y-52014053D03*
D12*
X123863491Y-24074053D03*
D13*
X121863491Y-24074053D03*
D12*
X137103491Y-53244053D03*
X137103491Y-50744053D03*
D14*
X132023491Y-64714053D03*
D13*
X124403491Y-64714053D03*
X124403491Y-62174053D03*
D14*
X132023491Y-62174053D03*
X132023491Y-59634053D03*
D13*
X124403491Y-59634053D03*
D15*
X126943491Y-34234053D03*
D16*
X126943491Y-29154053D03*
X119323491Y-74874053D03*
D15*
X119323491Y-69794053D03*
X139643491Y-29154053D03*
D16*
X144723491Y-29154053D03*
X144723491Y-31694053D03*
D15*
X139643491Y-31694053D03*
X139643491Y-22804053D03*
D16*
X144723491Y-22804053D03*
X144723491Y-25344053D03*
D15*
X139643491Y-25344053D03*
D17*
X134563491Y-24074053D03*
X129483491Y-24074053D03*
X132023491Y-24074053D03*
D14*
X149803491Y-36774053D03*
X147263491Y-36774053D03*
X144723491Y-36774053D03*
X142183491Y-36774053D03*
X139643491Y-36774053D03*
X137103491Y-36774053D03*
X134563491Y-36774053D03*
X132023491Y-36774053D03*
X132023491Y-44394053D03*
X134563491Y-44394053D03*
X137103491Y-44394053D03*
X139643491Y-44394053D03*
X142183491Y-44394053D03*
X144723491Y-44394053D03*
X147263491Y-44394053D03*
X149803491Y-44394053D03*
D18*
X139643491Y-62174053D03*
X137103491Y-62174053D03*
X142183491Y-62174053D03*
X142183491Y-64714053D03*
X142183491Y-59634053D03*
X139643491Y-59634053D03*
X137103491Y-59634053D03*
X137103491Y-64714053D03*
X139643491Y-64714053D03*
D19*
X152343491Y-60904053D03*
X152343491Y-63444053D03*
X152343491Y-58364053D03*
X152343491Y-65984053D03*
X119323491Y-65984053D03*
X119323491Y-58364053D03*
X119323491Y-63444053D03*
X119323491Y-60904053D03*
D20*
X121107148Y-31606146D03*
X119329148Y-31606146D03*
X117551148Y-31606146D03*
X117551148Y-34146146D03*
X119329148Y-34146146D03*
X121107148Y-34146146D03*
X121107148Y-36686146D03*
X119329148Y-36686146D03*
X117551148Y-36686146D03*
X117551148Y-39226146D03*
X119329148Y-39226146D03*
X121107148Y-39226146D03*
X121107148Y-41766146D03*
X119329148Y-41766146D03*
X117551148Y-41766146D03*
X117551148Y-44306146D03*
X119329148Y-44306146D03*
X121107148Y-44306146D03*
X121107148Y-46846146D03*
X119329148Y-46846146D03*
X117551148Y-46846146D03*
X117551148Y-49386146D03*
X119329148Y-49386146D03*
X121107148Y-49386146D03*
D21*
X149803491Y-25344053D03*
X149803491Y-22804053D03*
X149803491Y-24074053D03*
X149803491Y-30424053D03*
X149803491Y-29154053D03*
X149803491Y-31694053D03*
D12*
X200660000Y-24860000D03*
D13*
X200660000Y-22860000D03*
D12*
X191770000Y-25360000D03*
X191770000Y-22860000D03*
D18*
X177800000Y-34290000D03*
X180340000Y-34290000D03*
X177800000Y-36830000D03*
X180340000Y-36830000D03*
X177800000Y-39370000D03*
X180340000Y-39370000D03*
X190987303Y-36830000D03*
X190987303Y-34290000D03*
X190987303Y-39370000D03*
X193527303Y-39370000D03*
X188447303Y-39370000D03*
X188447303Y-36830000D03*
X188447303Y-34290000D03*
X193527303Y-34290000D03*
X193527303Y-36830000D03*
D23*
X177800000Y-22860000D03*
X185420000Y-22860000D03*
X180340000Y-22860000D03*
X182880000Y-22860000D03*
D35*
X200660000Y-36830000D03*
X200660000Y-34290000D03*
D25*
X200660000Y-31750000D03*
M02*
