EESchema Schematic File Version 2
LIBS:power
LIBS:device
LIBS:transistors
LIBS:conn
LIBS:linear
LIBS:regul
LIBS:74xx
LIBS:cmos4000
LIBS:adc-dac
LIBS:memory
LIBS:xilinx
LIBS:microcontrollers
LIBS:dsp
LIBS:microchip
LIBS:analog_switches
LIBS:motorola
LIBS:texas
LIBS:intel
LIBS:audio
LIBS:interface
LIBS:digital-audio
LIBS:philips
LIBS:display
LIBS:cypress
LIBS:siliconi
LIBS:opto
LIBS:atmel
LIBS:contrib
LIBS:valves
LIBS:LID
LIBS:programmer-adapter-cache
EELAYER 26 0
EELAYER END
$Descr USLetter 11000 8500
encoding utf-8
Sheet 1 1
Title "Programming Terminal"
Date "2017-05-03"
Rev "1"
Comp ""
Comment1 ""
Comment2 ""
Comment3 ""
Comment4 ""
$EndDescr
$Comp
L DEVICE_SOCKET N1
U 1 1 58A3BDA8
P 8450 4400
F 0 "N1" H 8450 4887 60  0000 C CNN
F 1 "DEVICE_SOCKET" H 8450 4781 60  0000 C CNN
F 2 "LID:LID_NODE_CONN" H 3600 2150 60  0001 C CNN
F 3 "" H 3600 2150 60  0001 C CNN
	1    8450 4400
	1    0    0    -1  
$EndComp
$Comp
L AVR-ISP-6 CON1
U 1 1 58A3BE9A
P 8500 3150
F 0 "CON1" H 8487 3515 50  0000 C CNN
F 1 "AVR-ISP-6" H 8487 3424 50  0000 C CNN
F 2 "LID:ISP6" V -320 440 50  0001 C CNN
F 3 "" H 175 400 50  0001 C CNN
	1    8500 3150
	1    0    0    -1  
$EndComp
Text Label 9200 3150 0    60   ~ 0
MOSI
$Comp
L GND #PWR01
U 1 1 58A3BFC5
P 9200 3350
F 0 "#PWR01" H 3050 1000 50  0001 C CNN
F 1 "GND" H 9205 3177 50  0000 C CNN
F 2 "" H 3050 1250 50  0001 C CNN
F 3 "" H 3050 1250 50  0001 C CNN
	1    9200 3350
	1    0    0    -1  
$EndComp
$Comp
L VPP #PWR02
U 1 1 58A3C026
P 9200 2950
F 0 "#PWR02" H 2200 1200 50  0001 C CNN
F 1 "VPP" H 9215 3123 50  0000 C CNN
F 2 "" H 2200 1350 50  0001 C CNN
F 3 "" H 2200 1350 50  0001 C CNN
	1    9200 2950
	1    0    0    -1  
$EndComp
Text Label 7650 3050 0    60   ~ 0
MISO
Text Label 7650 3150 0    60   ~ 0
SCK
Text Label 7650 3250 0    60   ~ 0
RESET
Text Label 7350 4500 0    60   ~ 0
RESET
Text Label 7350 4400 0    60   ~ 0
MISO
Text Label 7350 4200 0    60   ~ 0
SCK
Text Label 7350 4300 0    60   ~ 0
MOSI
$Comp
L GND #PWR03
U 1 1 58A3C2AA
P 8450 5100
F 0 "#PWR03" H 2300 2750 50  0001 C CNN
F 1 "GND" H 8455 4927 50  0000 C CNN
F 2 "" H 2300 3000 50  0001 C CNN
F 3 "" H 2300 3000 50  0001 C CNN
	1    8450 5100
	1    0    0    -1  
$EndComp
$Comp
L VREG U1
U 1 1 58A3ECA5
P 5150 3600
F 0 "U1" H 5150 3887 60  0000 C CNN
F 1 "VREG" H 5150 3781 60  0000 C CNN
F 2 "TO_SOT_Packages_THT:TO-220_Vertical" H 2750 50  60  0001 C CNN
F 3 "" H 2750 50  60  0001 C CNN
	1    5150 3600
	1    0    0    -1  
$EndComp
$Comp
L C C1
U 1 1 58A3EDDC
P 4550 3900
F 0 "C1" H 4665 3946 50  0000 L CNN
F 1 "0.1uF" H 4665 3855 50  0000 L CNN
F 2 "Capacitors_THT:C_Disc_D5.0mm_W2.5mm_P2.50mm" H 1938 -600 50  0001 C CNN
F 3 "" H 1900 -450 50  0001 C CNN
	1    4550 3900
	1    0    0    -1  
$EndComp
$Comp
L C C2
U 1 1 58A3EE42
P 5750 3900
F 0 "C2" H 5865 3946 50  0000 L CNN
F 1 "10uF" H 5865 3855 50  0000 L CNN
F 2 "Capacitors_THT:CP_Radial_D5.0mm_P2.00mm" H 3138 -600 50  0001 C CNN
F 3 "" H 3100 -450 50  0001 C CNN
	1    5750 3900
	1    0    0    -1  
$EndComp
$Comp
L VPP #PWR05
U 1 1 58A3EF6D
P 6050 3450
F 0 "#PWR05" H -950 1700 50  0001 C CNN
F 1 "VPP" H 6065 3623 50  0000 C CNN
F 2 "" H -950 1850 50  0001 C CNN
F 3 "" H -950 1850 50  0001 C CNN
	1    6050 3450
	1    0    0    -1  
$EndComp
$Comp
L GND #PWR06
U 1 1 58A3EF8C
P 5150 4350
F 0 "#PWR06" H -1000 2000 50  0001 C CNN
F 1 "GND" H 5155 4177 50  0000 C CNN
F 2 "" H -1000 2250 50  0001 C CNN
F 3 "" H -1000 2250 50  0001 C CNN
	1    5150 4350
	1    0    0    -1  
$EndComp
$Comp
L BUS_CONN BUS1
U 1 1 58A3F017
P 1900 3750
F 0 "BUS1" H 2128 3803 60  0000 L CNN
F 1 "BUS_CONN" H 2128 3697 60  0000 L CNN
F 2 "LID:LID_NODE_INTERCONN" H -3500 -1300 60  0001 C CNN
F 3 "" H -3500 -1300 60  0001 C CNN
	1    1900 3750
	-1   0    0    -1  
$EndComp
$Comp
L GND #PWR07
U 1 1 58A3F262
P 2350 4350
F 0 "#PWR07" H -3800 2000 50  0001 C CNN
F 1 "GND" H 2355 4177 50  0000 C CNN
F 2 "" H -3800 2250 50  0001 C CNN
F 3 "" H -3800 2250 50  0001 C CNN
	1    2350 4350
	1    0    0    -1  
$EndComp
NoConn ~ 2250 3700
NoConn ~ 2250 3800
Text Label 2350 3600 0    60   ~ 0
VPWR
Wire Wire Line
	8600 3050 9200 3050
Wire Wire Line
	8600 3150 9200 3150
Wire Wire Line
	8600 3250 9200 3250
Wire Wire Line
	8350 3050 7650 3050
Wire Wire Line
	8350 3150 7650 3150
Wire Wire Line
	8350 3250 7650 3250
Wire Wire Line
	9200 3250 9200 3350
Wire Wire Line
	9200 3050 9200 2950
Wire Wire Line
	7950 4500 7350 4500
Wire Wire Line
	7950 4400 7350 4400
Wire Wire Line
	7950 4200 7350 4200
Wire Wire Line
	7950 4300 7350 4300
Wire Wire Line
	9700 4300 8950 4300
Wire Wire Line
	8450 5000 8450 5100
Wire Wire Line
	9700 4200 9700 4500
Wire Wire Line
	8950 4200 9900 4200
Connection ~ 9700 4200
Wire Wire Line
	9700 4400 8950 4400
Connection ~ 9700 4300
Wire Wire Line
	9700 4500 8950 4500
Connection ~ 9700 4400
Wire Wire Line
	5650 3600 6050 3600
Wire Wire Line
	5750 3600 5750 3750
Wire Wire Line
	2250 3600 4650 3600
Wire Wire Line
	4550 3600 4550 3750
Wire Wire Line
	4550 4050 4550 4200
Wire Wire Line
	4550 4200 5750 4200
Wire Wire Line
	5150 4050 5150 4350
Wire Wire Line
	5750 4200 5750 4050
Connection ~ 5150 4200
Wire Wire Line
	6050 3600 6050 3450
Connection ~ 5750 3600
Wire Wire Line
	2250 3900 2350 3900
Wire Wire Line
	2350 3900 2350 4350
Connection ~ 4550 3600
Text Label 9900 4200 0    60   ~ 0
VPWR
$EndSCHEMATC
