G04 #@! TF.GenerationSoftware,KiCad,Pcbnew,(2017-02-14 revision 58ed546)-master*
G04 #@! TF.CreationDate,2017-02-15T20:45:08-07:00*
G04 #@! TF.ProjectId,terminal,7465726D696E616C2E6B696361645F70,rev?*
G04 #@! TF.FileFunction,Legend,Bot*
G04 #@! TF.FilePolarity,Positive*
%FSLAX46Y46*%
G04 Gerber Fmt 4.6, Leading zero omitted, Abs format (unit mm)*
G04 Created by KiCad (PCBNEW (2017-02-14 revision 58ed546)-master) date Wednesday, February 15, 2017 'PMt' 08:45:08 PM*
%MOMM*%
%LPD*%
G01*
G04 APERTURE LIST*
%ADD10C,0.100000*%
%ADD11C,0.150000*%
%ADD12C,8.000000*%
%ADD13C,1.600000*%
%ADD14R,1.600000X1.600000*%
%ADD15O,1.600000X1.600000*%
%ADD16C,1.400000*%
%ADD17O,1.400000X1.400000*%
%ADD18O,2.499360X1.501140*%
%ADD19C,1.524000*%
%ADD20O,1.500000X2.500000*%
%ADD21O,0.899160X1.501140*%
G04 APERTURE END LIST*
D10*
D11*
X115513491Y-119324053D02*
X118053491Y-119324053D01*
X118053491Y-119324053D02*
X118053491Y-121864053D01*
X115513491Y-121864053D02*
X123133491Y-121864053D01*
X123133491Y-121864053D02*
X123133491Y-114244053D01*
X123133491Y-114244053D02*
X115513491Y-114244053D01*
X115513491Y-114244053D02*
X115513491Y-121864053D01*
%LPC*%
D12*
X109163491Y-107894053D03*
X129483491Y-107894053D03*
X129483491Y-128214053D03*
X109163491Y-128214053D03*
D13*
X81223491Y-133834053D03*
D14*
X81223491Y-135834053D03*
D13*
X110393491Y-120594053D03*
X107893491Y-120594053D03*
D15*
X121863491Y-125674053D03*
D14*
X121863491Y-133294053D03*
X119323491Y-133294053D03*
D15*
X119323491Y-125674053D03*
X116783491Y-125674053D03*
D14*
X116783491Y-133294053D03*
D16*
X91383491Y-130754053D03*
D17*
X86303491Y-130754053D03*
X132023491Y-138374053D03*
D16*
X126943491Y-138374053D03*
X86303491Y-118054053D03*
D17*
X86303491Y-112974053D03*
X88843491Y-112974053D03*
D16*
X88843491Y-118054053D03*
X79953491Y-118054053D03*
D17*
X79953491Y-112974053D03*
X82493491Y-112974053D03*
D16*
X82493491Y-118054053D03*
D18*
X81223491Y-123134053D03*
X81223491Y-128214053D03*
X81223491Y-125674053D03*
D15*
X93923491Y-107894053D03*
X93923491Y-110434053D03*
X93923491Y-112974053D03*
X93923491Y-115514053D03*
X93923491Y-118054053D03*
X93923491Y-120594053D03*
X93923491Y-123134053D03*
X93923491Y-125674053D03*
X101543491Y-125674053D03*
X101543491Y-123134053D03*
X101543491Y-120594053D03*
X101543491Y-118054053D03*
X101543491Y-115514053D03*
X101543491Y-112974053D03*
X101543491Y-110434053D03*
X101543491Y-107894053D03*
D19*
X119323491Y-118054053D03*
X119323491Y-120594053D03*
X119323491Y-115514053D03*
X121863491Y-115514053D03*
X116783491Y-115514053D03*
X116783491Y-118054053D03*
X116783491Y-120594053D03*
X121863491Y-120594053D03*
X121863491Y-118054053D03*
D20*
X118053491Y-105354053D03*
X120593491Y-105354053D03*
X115513491Y-105354053D03*
X123133491Y-105354053D03*
X123133491Y-138374053D03*
X115513491Y-138374053D03*
X120593491Y-138374053D03*
X118053491Y-138374053D03*
D21*
X82493491Y-107894053D03*
X79953491Y-107894053D03*
X81223491Y-107894053D03*
X87573491Y-107894053D03*
X86303491Y-107894053D03*
X88843491Y-107894053D03*
M02*
