G04 #@! TF.GenerationSoftware,KiCad,Pcbnew,no-vcs-found-ef3553c~58~ubuntu16.04.1*
G04 #@! TF.CreationDate,2017-03-16T13:33:59-06:00*
G04 #@! TF.ProjectId,gate-through-hole,676174652D7468726F7567682D686F6C,2*
G04 #@! TF.FileFunction,Soldermask,Top*
G04 #@! TF.FilePolarity,Negative*
%FSLAX46Y46*%
G04 Gerber Fmt 4.6, Leading zero omitted, Abs format (unit mm)*
G04 Created by KiCad (PCBNEW no-vcs-found-ef3553c~58~ubuntu16.04.1) date Thu Mar 16 13:33:59 2017*
%MOMM*%
%LPD*%
G01*
G04 APERTURE LIST*
%ADD10C,0.100000*%
%ADD11R,1.200000X2.500000*%
%ADD12C,1.350000*%
%ADD13R,1.800000X1.800000*%
%ADD14C,1.800000*%
%ADD15C,4.000000*%
%ADD16O,0.899160X1.501140*%
%ADD17R,0.899160X1.501140*%
%ADD18C,1.600000*%
%ADD19R,1.600000X1.600000*%
%ADD20O,1.600000X1.600000*%
%ADD21R,2.200000X2.200000*%
%ADD22O,2.200000X2.200000*%
%ADD23C,1.524000*%
%ADD24C,1.400000*%
%ADD25O,1.400000X1.400000*%
%ADD26O,2.499360X1.501140*%
%ADD27O,1.501140X0.899160*%
%ADD28R,1.501140X0.899160*%
G04 APERTURE END LIST*
D10*
D11*
X168910000Y-123210000D03*
D12*
X172310000Y-125960000D03*
X165510000Y-125960000D03*
D11*
X166410000Y-123210000D03*
X171410000Y-123210000D03*
D13*
X121920000Y-124460000D03*
D14*
X121920000Y-127000000D03*
X121920000Y-111760000D03*
D13*
X121920000Y-109220000D03*
D14*
X121920000Y-96520000D03*
D13*
X121920000Y-93980000D03*
D14*
X173990000Y-109220000D03*
D13*
X173990000Y-111760000D03*
D15*
X123825000Y-101600000D03*
X172085000Y-92710000D03*
X123825000Y-116840000D03*
D16*
X167640000Y-118110000D03*
X166370000Y-118110000D03*
D17*
X168910000Y-118110000D03*
D18*
X132080000Y-117380000D03*
D19*
X132080000Y-119380000D03*
D18*
X129580000Y-105410000D03*
X132080000Y-105410000D03*
D19*
X167640000Y-102870000D03*
D20*
X160020000Y-102870000D03*
X160020000Y-99060000D03*
D19*
X167640000Y-99060000D03*
X167640000Y-95250000D03*
D20*
X160020000Y-95250000D03*
X160020000Y-91440000D03*
D19*
X167640000Y-91440000D03*
D21*
X137160000Y-102870000D03*
D22*
X147320000Y-102870000D03*
X147320000Y-95250000D03*
D21*
X137160000Y-95250000D03*
X137160000Y-91440000D03*
D22*
X147320000Y-91440000D03*
X147320000Y-99060000D03*
D21*
X137160000Y-99060000D03*
D20*
X138430000Y-119380000D03*
X161290000Y-127000000D03*
X140970000Y-119380000D03*
X158750000Y-127000000D03*
X143510000Y-119380000D03*
X156210000Y-127000000D03*
X146050000Y-119380000D03*
X153670000Y-127000000D03*
X148590000Y-119380000D03*
X151130000Y-127000000D03*
X151130000Y-119380000D03*
X148590000Y-127000000D03*
X153670000Y-119380000D03*
X146050000Y-127000000D03*
X156210000Y-119380000D03*
X143510000Y-127000000D03*
X158750000Y-119380000D03*
X140970000Y-127000000D03*
X161290000Y-119380000D03*
D19*
X138430000Y-127000000D03*
D13*
X139700000Y-111760000D03*
D14*
X139700000Y-109220000D03*
X160020000Y-109220000D03*
D13*
X160020000Y-111760000D03*
D23*
X149860000Y-110490000D03*
X149860000Y-113030000D03*
X149860000Y-107950000D03*
X152400000Y-107950000D03*
X147320000Y-107950000D03*
X147320000Y-110490000D03*
X147320000Y-113030000D03*
X152400000Y-113030000D03*
X152400000Y-110490000D03*
D24*
X125730000Y-111760000D03*
D25*
X125730000Y-106680000D03*
X125730000Y-91440000D03*
D24*
X125730000Y-96520000D03*
X170180000Y-114300000D03*
D25*
X165100000Y-114300000D03*
X170180000Y-111760000D03*
D24*
X165100000Y-111760000D03*
X137160000Y-115570000D03*
D25*
X142240000Y-115570000D03*
X157480000Y-115570000D03*
D24*
X162560000Y-115570000D03*
X125730000Y-127000000D03*
D25*
X125730000Y-121920000D03*
X133985000Y-125095000D03*
D24*
X128905000Y-125095000D03*
X151130000Y-91440000D03*
D25*
X156210000Y-91440000D03*
X156210000Y-95250000D03*
D24*
X151130000Y-95250000D03*
X151130000Y-99060000D03*
D25*
X156210000Y-99060000D03*
X156210000Y-102870000D03*
D24*
X151130000Y-102870000D03*
X173990000Y-115570000D03*
D25*
X173990000Y-120650000D03*
X171450000Y-102870000D03*
D24*
X171450000Y-97790000D03*
D26*
X131445000Y-94615000D03*
X131445000Y-99695000D03*
X131445000Y-97155000D03*
D17*
X166370000Y-107950000D03*
D16*
X168910000Y-107950000D03*
X167640000Y-107950000D03*
D27*
X132080000Y-111760000D03*
X132080000Y-110490000D03*
D28*
X132080000Y-113030000D03*
M02*
