EESchema Schematic File Version 2
LIBS:generic-device-rescue
LIBS:power
LIBS:device
LIBS:transistors
LIBS:conn
LIBS:linear
LIBS:regul
LIBS:74xx
LIBS:cmos4000
LIBS:adc-dac
LIBS:memory
LIBS:xilinx
LIBS:microcontrollers
LIBS:dsp
LIBS:microchip
LIBS:analog_switches
LIBS:motorola
LIBS:texas
LIBS:intel
LIBS:audio
LIBS:interface
LIBS:digital-audio
LIBS:philips
LIBS:display
LIBS:cypress
LIBS:siliconi
LIBS:opto
LIBS:atmel
LIBS:contrib
LIBS:valves
LIBS:LID
LIBS:generic-device-cache
EELAYER 25 0
EELAYER END
$Descr A4 11693 8268
encoding utf-8
Sheet 1 1
Title ""
Date ""
Rev ""
Comp ""
Comment1 ""
Comment2 ""
Comment3 ""
Comment4 ""
$EndDescr
$Comp
L D D1
U 1 1 57FF2391
P 5200 2200
F 0 "D1" H 5200 2300 50  0000 C CNN
F 1 "1N4148" H 5200 2100 50  0000 C CNN
F 2 "" H 5200 2200 50  0000 C CNN
F 3 "" H 5200 2200 50  0000 C CNN
	1    5200 2200
	-1   0    0    1   
$EndComp
$Comp
L D D2
U 1 1 57FF2514
P 5200 2500
F 0 "D2" H 5200 2600 50  0000 C CNN
F 1 "1N4148" H 5200 2400 50  0000 C CNN
F 2 "" H 5200 2500 50  0000 C CNN
F 3 "" H 5200 2500 50  0000 C CNN
	1    5200 2500
	-1   0    0    1   
$EndComp
$Comp
L D D3
U 1 1 57FF253B
P 5200 2800
F 0 "D3" H 5200 2900 50  0000 C CNN
F 1 "1N4148" H 5200 2700 50  0000 C CNN
F 2 "" H 5200 2800 50  0000 C CNN
F 3 "" H 5200 2800 50  0000 C CNN
	1    5200 2800
	-1   0    0    1   
$EndComp
$Comp
L D D4
U 1 1 57FF2562
P 5200 3100
F 0 "D4" H 5200 3200 50  0000 C CNN
F 1 "1N4148" H 5200 3000 50  0000 C CNN
F 2 "" H 5200 3100 50  0000 C CNN
F 3 "" H 5200 3100 50  0000 C CNN
	1    5200 3100
	-1   0    0    1   
$EndComp
$Comp
L VREG U1
U 1 1 57FF281F
P 6600 2200
F 0 "U1" H 6350 1900 60  0000 C CNN
F 1 "LD1117V33" H 6550 2350 60  0000 C CNN
F 2 "" H 6600 2200 60  0001 C CNN
F 3 "" H 6600 2200 60  0001 C CNN
	1    6600 2200
	1    0    0    -1  
$EndComp
$Comp
L GND #PWR6
U 1 1 57FF28FC
P 6600 3250
F 0 "#PWR6" H 6600 3000 50  0001 C CNN
F 1 "GND" H 6600 3100 50  0000 C CNN
F 2 "" H 6600 3250 50  0000 C CNN
F 3 "" H 6600 3250 50  0000 C CNN
	1    6600 3250
	1    0    0    -1  
$EndComp
$Comp
L C C1
U 1 1 57FF2A2C
P 5950 2600
F 0 "C1" H 5975 2700 50  0000 L CNN
F 1 "0.1uF" H 5975 2500 50  0000 L CNN
F 2 "" H 5988 2450 50  0000 C CNN
F 3 "" H 5950 2600 50  0000 C CNN
	1    5950 2600
	1    0    0    -1  
$EndComp
$Comp
L CP1 C2
U 1 1 57FF2A79
P 7250 2650
F 0 "C2" H 7275 2750 50  0000 L CNN
F 1 "10uF" H 7275 2550 50  0000 L CNN
F 2 "" H 7250 2650 50  0000 C CNN
F 3 "" H 7250 2650 50  0000 C CNN
	1    7250 2650
	1    0    0    -1  
$EndComp
$Comp
L VPP #PWR5
U 1 1 57FF31DF
P 5950 1950
F 0 "#PWR5" H 5950 1800 50  0001 C CNN
F 1 "VPP" H 5950 2100 50  0000 C CNN
F 2 "" H 5950 1950 50  0000 C CNN
F 3 "" H 5950 1950 50  0000 C CNN
	1    5950 1950
	1    0    0    -1  
$EndComp
$Comp
L +3.3V #PWR8
U 1 1 57FF3340
P 7250 1950
F 0 "#PWR8" H 7250 1800 50  0001 C CNN
F 1 "+3.3V" H 7250 2090 50  0000 C CNN
F 2 "" H 7250 1950 50  0000 C CNN
F 3 "" H 7250 1950 50  0000 C CNN
	1    7250 1950
	1    0    0    -1  
$EndComp
Text GLabel 4600 1150 2    60   BiDi ~ 0
RA
Text GLabel 4600 1350 2    60   BiDi ~ 0
RC
Text GLabel 4800 1450 2    60   BiDi ~ 0
RD
Text GLabel 4800 1250 2    60   BiDi ~ 0
RB
$Comp
L GND #PWR3
U 1 1 57FF4649
P 3200 2300
F 0 "#PWR3" H 3200 2050 50  0001 C CNN
F 1 "GND" H 3200 2150 50  0000 C CNN
F 2 "" H 3200 2300 50  0000 C CNN
F 3 "" H 3200 2300 50  0000 C CNN
	1    3200 2300
	1    0    0    -1  
$EndComp
$Comp
L ATTINY261A-RESCUE-generic-device U2
U 1 1 57FF5D33
P 3100 5200
F 0 "U2" H 2050 4150 60  0000 C CNN
F 1 "ATTINY261A" H 2250 6250 60  0000 C CNN
F 2 "" H 2050 4150 60  0001 C CNN
F 3 "" H 2050 4150 60  0001 C CNN
	1    3100 5200
	1    0    0    -1  
$EndComp
$Comp
L +3.3V #PWR1
U 1 1 57FF5F1A
P 1650 4100
F 0 "#PWR1" H 1650 3950 50  0001 C CNN
F 1 "+3.3V" H 1650 4240 50  0000 C CNN
F 2 "" H 1650 4100 50  0000 C CNN
F 3 "" H 1650 4100 50  0000 C CNN
	1    1650 4100
	1    0    0    -1  
$EndComp
$Comp
L GND #PWR2
U 1 1 57FF6470
P 1650 6300
F 0 "#PWR2" H 1650 6050 50  0001 C CNN
F 1 "GND" H 1650 6150 50  0000 C CNN
F 2 "" H 1650 6300 50  0000 C CNN
F 3 "" H 1650 6300 50  0000 C CNN
	1    1650 6300
	1    0    0    -1  
$EndComp
Text GLabel 4500 6100 2    60   Input ~ 0
RESET
Text GLabel 4500 5400 2    60   BiDi ~ 0
SDA0/MOSI
Text GLabel 4500 5600 2    60   BiDi ~ 0
SCL0/SCK
Text GLabel 5100 5500 2    60   Output ~ 0
MISO
$Comp
L +3.3V #PWR4
U 1 1 57FFB23D
P 1650 2400
F 0 "#PWR4" H 1650 2250 50  0001 C CNN
F 1 "+3.3V" H 1650 2540 50  0000 C CNN
F 2 "" H 1650 2400 50  0000 C CNN
F 3 "" H 1650 2400 50  0000 C CNN
	1    1650 2400
	1    0    0    -1  
$EndComp
$Comp
L R R1
U 1 1 57FFB289
P 1650 2650
F 0 "R1" V 1730 2650 50  0000 C CNN
F 1 "1k" V 1650 2650 50  0000 C CNN
F 2 "" V 1580 2650 50  0000 C CNN
F 3 "" H 1650 2650 50  0000 C CNN
	1    1650 2650
	1    0    0    -1  
$EndComp
Text GLabel 1650 2900 3    60   Input ~ 0
RESET
Text GLabel 4500 4300 2    60   BiDi ~ 0
SDA1
Text GLabel 4500 4500 2    60   BiDi ~ 0
SCL1
$Comp
L R R2
U 1 1 57FFDCE0
P 6900 4450
F 0 "R2" V 6980 4450 50  0000 C CNN
F 1 "20k" V 6900 4450 50  0000 C CNN
F 2 "" V 6830 4450 50  0000 C CNN
F 3 "" H 6900 4450 50  0000 C CNN
	1    6900 4450
	0    1    1    0   
$EndComp
$Comp
L R R3
U 1 1 57FFDD49
P 6900 4650
F 0 "R3" V 6980 4650 50  0000 C CNN
F 1 "20k" V 6900 4650 50  0000 C CNN
F 2 "" V 6830 4650 50  0000 C CNN
F 3 "" H 6900 4650 50  0000 C CNN
	1    6900 4650
	0    1    1    0   
$EndComp
$Comp
L R R4
U 1 1 57FFDD7C
P 6900 4850
F 0 "R4" V 6980 4850 50  0000 C CNN
F 1 "20k" V 6900 4850 50  0000 C CNN
F 2 "" V 6830 4850 50  0000 C CNN
F 3 "" H 6900 4850 50  0000 C CNN
	1    6900 4850
	0    1    1    0   
$EndComp
$Comp
L R R5
U 1 1 57FFDDB1
P 6900 5050
F 0 "R5" V 6980 5050 50  0000 C CNN
F 1 "20k" V 6900 5050 50  0000 C CNN
F 2 "" V 6830 5050 50  0000 C CNN
F 3 "" H 6900 5050 50  0000 C CNN
	1    6900 5050
	0    1    1    0   
$EndComp
Text GLabel 7250 4450 2    60   BiDi ~ 0
RA
Text GLabel 7250 4650 2    60   BiDi ~ 0
RB
Text GLabel 7250 4850 2    60   BiDi ~ 0
RC
Text GLabel 7250 5050 2    60   BiDi ~ 0
RD
$Comp
L D D8
U 1 1 57FFECCF
P 6300 4300
F 0 "D8" H 6300 4400 50  0000 C CNN
F 1 "1N4148" H 6300 4200 50  0000 C CNN
F 2 "" H 6300 4300 50  0000 C CNN
F 3 "" H 6300 4300 50  0000 C CNN
	1    6300 4300
	0    1    1    0   
$EndComp
$Comp
L D D7
U 1 1 57FFEE8B
P 6000 4300
F 0 "D7" H 6000 4400 50  0000 C CNN
F 1 "1N4148" H 6000 4200 50  0000 C CNN
F 2 "" H 6000 4300 50  0000 C CNN
F 3 "" H 6000 4300 50  0000 C CNN
	1    6000 4300
	0    1    1    0   
$EndComp
$Comp
L D D6
U 1 1 57FFEED6
P 5700 4300
F 0 "D6" H 5700 4400 50  0000 C CNN
F 1 "1N4148" H 5700 4200 50  0000 C CNN
F 2 "" H 5700 4300 50  0000 C CNN
F 3 "" H 5700 4300 50  0000 C CNN
	1    5700 4300
	0    1    1    0   
$EndComp
$Comp
L D D5
U 1 1 57FFEF17
P 5400 4300
F 0 "D5" H 5400 4400 50  0000 C CNN
F 1 "1N4148" H 5400 4200 50  0000 C CNN
F 2 "" H 5400 4300 50  0000 C CNN
F 3 "" H 5400 4300 50  0000 C CNN
	1    5400 4300
	0    1    1    0   
$EndComp
$Comp
L +3.3V #PWR7
U 1 1 57FFF68E
P 6300 3850
F 0 "#PWR7" H 6300 3700 50  0001 C CNN
F 1 "+3.3V" H 6300 3990 50  0000 C CNN
F 2 "" H 6300 3850 50  0000 C CNN
F 3 "" H 6300 3850 50  0000 C CNN
	1    6300 3850
	1    0    0    -1  
$EndComp
Text GLabel 2250 1150 0    60   BiDi ~ 0
SDA1
Text GLabel 2250 1350 0    60   BiDi ~ 0
SCL1
Text GLabel 2250 1000 0    60   BiDi ~ 0
SCL0/SCK
Text GLabel 2250 1500 0    60   BiDi ~ 0
SDA0/MOSI
Text GLabel 2250 1700 0    60   Output ~ 0
MISO
Text GLabel 2550 2900 3    60   Input ~ 0
RESET
$Comp
L SPST SW1
U 1 1 58058A8D
P 2550 2400
F 0 "SW1" H 2550 2550 50  0000 C CNN
F 1 "SPST" H 2550 2250 50  0000 C CNN
F 2 "" H 2550 2400 50  0000 C CNN
F 3 "" H 2550 2400 50  0000 C CNN
	1    2550 2400
	0    1    1    0   
$EndComp
$Comp
L DEVICE_SOCKET N1
U 1 1 5805AE14
P 3200 1350
F 0 "N1" H 3500 900 60  0000 R CNN
F 1 "DEVICE_SOCKET" H 3200 1700 60  0000 C CNN
F 2 "" H 3200 1700 60  0001 C CNN
F 3 "" H 3200 1700 60  0001 C CNN
	1    3200 1350
	1    0    0    -1  
$EndComp
Wire Wire Line
	5500 3100 5350 3100
Wire Wire Line
	5500 2200 5500 3100
Wire Wire Line
	5500 2800 5350 2800
Wire Wire Line
	5350 2500 5500 2500
Connection ~ 5500 2800
Wire Wire Line
	5350 2200 6100 2200
Connection ~ 5500 2500
Connection ~ 5500 2200
Wire Wire Line
	6600 2650 6600 3250
Wire Wire Line
	5950 1950 5950 2450
Connection ~ 5950 2200
Wire Wire Line
	5950 2750 5950 3000
Connection ~ 6600 3000
Wire Wire Line
	7250 3000 7250 2800
Wire Wire Line
	5950 3000 7250 3000
Wire Wire Line
	7250 1950 7250 2500
Wire Wire Line
	7100 2200 7250 2200
Connection ~ 7250 2200
Wire Wire Line
	3700 1450 4800 1450
Wire Wire Line
	4200 1450 4200 3100
Wire Wire Line
	4200 3100 5050 3100
Wire Wire Line
	3700 1350 4600 1350
Wire Wire Line
	4300 1350 4300 2800
Wire Wire Line
	4300 2800 5050 2800
Wire Wire Line
	3700 1250 4800 1250
Wire Wire Line
	4400 1250 4400 2500
Wire Wire Line
	4400 2500 5050 2500
Wire Wire Line
	4500 1150 4500 2200
Wire Wire Line
	4500 2200 5050 2200
Wire Wire Line
	3200 2300 3200 1950
Wire Wire Line
	1800 4300 1650 4300
Wire Wire Line
	1650 4100 1650 4600
Wire Wire Line
	1650 4600 1800 4600
Connection ~ 1650 4300
Wire Wire Line
	1800 5800 1650 5800
Wire Wire Line
	1650 5800 1650 6300
Wire Wire Line
	1650 6100 1800 6100
Connection ~ 1650 6100
Wire Wire Line
	4300 6100 4500 6100
Wire Wire Line
	4300 5400 4500 5400
Wire Wire Line
	4300 5600 4500 5600
Wire Wire Line
	4300 5500 5100 5500
Wire Wire Line
	1650 2400 1650 2500
Wire Wire Line
	1650 2800 1650 2900
Wire Wire Line
	4300 4300 4500 4300
Wire Wire Line
	4300 4500 4500 4500
Wire Wire Line
	4300 4600 6600 4600
Wire Wire Line
	4300 4700 6700 4700
Wire Wire Line
	4300 4800 6700 4800
Wire Wire Line
	4300 4900 6600 4900
Wire Wire Line
	6600 4600 6600 4450
Wire Wire Line
	6600 4450 6750 4450
Wire Wire Line
	6700 4700 6700 4650
Wire Wire Line
	6700 4650 6750 4650
Wire Wire Line
	6700 4800 6700 4850
Wire Wire Line
	6700 4850 6750 4850
Wire Wire Line
	6600 4900 6600 5050
Wire Wire Line
	6600 5050 6750 5050
Wire Wire Line
	7050 4450 7250 4450
Wire Wire Line
	7050 4650 7250 4650
Wire Wire Line
	7050 4850 7250 4850
Wire Wire Line
	7050 5050 7250 5050
Wire Wire Line
	5400 4450 5400 4600
Connection ~ 5400 4600
Wire Wire Line
	5700 4450 5700 4700
Connection ~ 5700 4700
Wire Wire Line
	6000 4450 6000 4800
Connection ~ 6000 4800
Wire Wire Line
	6300 4450 6300 4900
Connection ~ 6300 4900
Wire Wire Line
	5400 4150 5400 4000
Wire Wire Line
	5400 4000 6300 4000
Wire Wire Line
	5700 4000 5700 4150
Wire Wire Line
	6000 4000 6000 4150
Connection ~ 5700 4000
Wire Wire Line
	6300 3850 6300 4150
Connection ~ 6000 4000
Connection ~ 6300 4000
Wire Wire Line
	2250 1000 2350 1000
Wire Wire Line
	2350 1000 2350 1150
Wire Wire Line
	2250 1150 2700 1150
Connection ~ 2350 1150
Wire Wire Line
	2250 1350 2350 1350
Wire Wire Line
	2350 1250 2350 1500
Wire Wire Line
	2350 1500 2250 1500
Wire Wire Line
	2350 1250 2700 1250
Connection ~ 2350 1350
Wire Wire Line
	2250 1700 2450 1700
Wire Wire Line
	2450 1700 2450 1350
Wire Wire Line
	2450 1350 2700 1350
Wire Wire Line
	2700 1450 2550 1450
Wire Wire Line
	2550 1450 2550 1900
Wire Wire Line
	3700 1150 4600 1150
Connection ~ 4500 1150
Connection ~ 4400 1250
Connection ~ 4300 1350
Connection ~ 4200 1450
$Comp
L OPTO_NPN Q1
U 1 1 581942DE
P 8350 1850
F 0 "Q1" H 8500 1900 50  0000 L CNN
F 1 "OPTO_NPN" H 8500 1750 50  0000 L CNN
F 2 "" H 8350 1850 50  0000 C CNN
F 3 "" H 8350 1850 50  0000 C CNN
	1    8350 1850
	1    0    0    -1  
$EndComp
$Comp
L R R6
U 1 1 581943D2
P 8450 2450
F 0 "R6" V 8530 2450 50  0000 C CNN
F 1 "2k" V 8450 2450 50  0000 C CNN
F 2 "" V 8380 2450 50  0000 C CNN
F 3 "" H 8450 2450 50  0000 C CNN
	1    8450 2450
	1    0    0    -1  
$EndComp
Wire Wire Line
	8450 2050 8450 2300
$Comp
L GND #PWR12
U 1 1 5819483D
P 8450 2850
F 0 "#PWR12" H 8450 2600 50  0001 C CNN
F 1 "GND" H 8450 2700 50  0000 C CNN
F 2 "" H 8450 2850 50  0000 C CNN
F 3 "" H 8450 2850 50  0000 C CNN
	1    8450 2850
	1    0    0    -1  
$EndComp
Wire Wire Line
	8450 2600 8450 2850
Wire Wire Line
	8450 1200 8450 1650
$Comp
L +3.3V #PWR11
U 1 1 58194CF7
P 8450 1200
F 0 "#PWR11" H 8450 1050 50  0001 C CNN
F 1 "+3.3V" H 8450 1340 50  0000 C CNN
F 2 "" H 8450 1200 50  0000 C CNN
F 3 "" H 8450 1200 50  0000 C CNN
	1    8450 1200
	1    0    0    -1  
$EndComp
Wire Wire Line
	8450 2150 8750 2150
Connection ~ 8450 2150
Text GLabel 8750 2150 2    60   Input ~ 0
IN1
$Comp
L OPTO_NPN Q2
U 1 1 581951C6
P 9200 1850
F 0 "Q2" H 9350 1900 50  0000 L CNN
F 1 "OPTO_NPN" H 9350 1750 50  0000 L CNN
F 2 "" H 9200 1850 50  0000 C CNN
F 3 "" H 9200 1850 50  0000 C CNN
	1    9200 1850
	1    0    0    -1  
$EndComp
$Comp
L R R7
U 1 1 581951CC
P 9300 2450
F 0 "R7" V 9380 2450 50  0000 C CNN
F 1 "2k" V 9300 2450 50  0000 C CNN
F 2 "" V 9230 2450 50  0000 C CNN
F 3 "" H 9300 2450 50  0000 C CNN
	1    9300 2450
	1    0    0    -1  
$EndComp
Wire Wire Line
	9300 2050 9300 2300
$Comp
L GND #PWR16
U 1 1 581951D3
P 9300 2850
F 0 "#PWR16" H 9300 2600 50  0001 C CNN
F 1 "GND" H 9300 2700 50  0000 C CNN
F 2 "" H 9300 2850 50  0000 C CNN
F 3 "" H 9300 2850 50  0000 C CNN
	1    9300 2850
	1    0    0    -1  
$EndComp
Wire Wire Line
	9300 2600 9300 2850
Wire Wire Line
	9300 1200 9300 1650
$Comp
L +3.3V #PWR15
U 1 1 581951DB
P 9300 1200
F 0 "#PWR15" H 9300 1050 50  0001 C CNN
F 1 "+3.3V" H 9300 1340 50  0000 C CNN
F 2 "" H 9300 1200 50  0000 C CNN
F 3 "" H 9300 1200 50  0000 C CNN
	1    9300 1200
	1    0    0    -1  
$EndComp
Wire Wire Line
	9300 2150 9600 2150
Connection ~ 9300 2150
Text GLabel 9600 2150 2    60   Input ~ 0
IN2
$Comp
L OPTO_NPN Q3
U 1 1 581952E4
P 10000 1850
F 0 "Q3" H 10150 1900 50  0000 L CNN
F 1 "OPTO_NPN" H 10150 1750 50  0000 L CNN
F 2 "" H 10000 1850 50  0000 C CNN
F 3 "" H 10000 1850 50  0000 C CNN
	1    10000 1850
	1    0    0    -1  
$EndComp
$Comp
L R R8
U 1 1 581952EA
P 10100 2450
F 0 "R8" V 10180 2450 50  0000 C CNN
F 1 "2k" V 10100 2450 50  0000 C CNN
F 2 "" V 10030 2450 50  0000 C CNN
F 3 "" H 10100 2450 50  0000 C CNN
	1    10100 2450
	1    0    0    -1  
$EndComp
Wire Wire Line
	10100 2050 10100 2300
$Comp
L GND #PWR18
U 1 1 581952F1
P 10100 2850
F 0 "#PWR18" H 10100 2600 50  0001 C CNN
F 1 "GND" H 10100 2700 50  0000 C CNN
F 2 "" H 10100 2850 50  0000 C CNN
F 3 "" H 10100 2850 50  0000 C CNN
	1    10100 2850
	1    0    0    -1  
$EndComp
Wire Wire Line
	10100 2600 10100 2850
Wire Wire Line
	10100 1200 10100 1650
$Comp
L +3.3V #PWR17
U 1 1 581952F9
P 10100 1200
F 0 "#PWR17" H 10100 1050 50  0001 C CNN
F 1 "+3.3V" H 10100 1340 50  0000 C CNN
F 2 "" H 10100 1200 50  0000 C CNN
F 3 "" H 10100 1200 50  0000 C CNN
	1    10100 1200
	1    0    0    -1  
$EndComp
Wire Wire Line
	10100 2150 10400 2150
Connection ~ 10100 2150
Text GLabel 10400 2150 2    60   Input ~ 0
IN3
Text GLabel 4850 6000 2    60   Input ~ 0
IN1
Text GLabel 4400 5000 2    60   Input ~ 0
IN2
Text GLabel 4800 4400 2    60   Input ~ 0
IN3
Wire Wire Line
	4300 4400 4800 4400
Wire Wire Line
	4300 5000 4400 5000
Wire Wire Line
	4300 6000 4850 6000
$Comp
L LED-RESCUE-generic-device D9
U 1 1 58196AC4
P 8200 4250
F 0 "D9" H 8200 4350 50  0000 C CNN
F 1 "LED" H 8200 4150 50  0000 C CNN
F 2 "" H 8200 4250 50  0000 C CNN
F 3 "" H 8200 4250 50  0000 C CNN
	1    8200 4250
	0    -1   -1   0   
$EndComp
$Comp
L Q_NPN_EBC Q4
U 1 1 58196C4B
P 8100 4850
F 0 "Q4" H 8400 4900 50  0000 R CNN
F 1 "Q_NPN_EBC" H 8700 4800 50  0000 R CNN
F 2 "" H 8300 4950 50  0000 C CNN
F 3 "" H 8100 4850 50  0000 C CNN
	1    8100 4850
	1    0    0    -1  
$EndComp
$Comp
L R R10
U 1 1 58197377
P 8200 3750
F 0 "R10" V 8280 3750 50  0000 C CNN
F 1 "100" V 8200 3750 50  0000 C CNN
F 2 "" V 8130 3750 50  0000 C CNN
F 3 "" H 8200 3750 50  0000 C CNN
	1    8200 3750
	1    0    0    -1  
$EndComp
$Comp
L GND #PWR10
U 1 1 581974CC
P 8200 5700
F 0 "#PWR10" H 8200 5450 50  0001 C CNN
F 1 "GND" H 8200 5550 50  0000 C CNN
F 2 "" H 8200 5700 50  0000 C CNN
F 3 "" H 8200 5700 50  0000 C CNN
	1    8200 5700
	1    0    0    -1  
$EndComp
Wire Wire Line
	8200 3450 8200 3600
Wire Wire Line
	8200 3900 8200 4050
Wire Wire Line
	8200 4450 8200 4650
Wire Wire Line
	8200 5050 8200 5700
$Comp
L VPP #PWR9
U 1 1 58198FEE
P 8200 3450
F 0 "#PWR9" H 8200 3300 50  0001 C CNN
F 1 "VPP" H 8200 3600 50  0000 C CNN
F 2 "" H 8200 3450 50  0000 C CNN
F 3 "" H 8200 3450 50  0000 C CNN
	1    8200 3450
	1    0    0    -1  
$EndComp
$Comp
L LED-RESCUE-generic-device D10
U 1 1 5819A2B5
P 9250 4250
F 0 "D10" H 9250 4350 50  0000 C CNN
F 1 "LED" H 9250 4150 50  0000 C CNN
F 2 "" H 9250 4250 50  0000 C CNN
F 3 "" H 9250 4250 50  0000 C CNN
	1    9250 4250
	0    -1   -1   0   
$EndComp
$Comp
L Q_NPN_EBC Q5
U 1 1 5819A2BB
P 9150 4850
F 0 "Q5" H 9450 4900 50  0000 R CNN
F 1 "Q_NPN_EBC" H 9750 4800 50  0000 R CNN
F 2 "" H 9350 4950 50  0000 C CNN
F 3 "" H 9150 4850 50  0000 C CNN
	1    9150 4850
	1    0    0    -1  
$EndComp
$Comp
L R R11
U 1 1 5819A2C1
P 9250 3750
F 0 "R11" V 9330 3750 50  0000 C CNN
F 1 "100" V 9250 3750 50  0000 C CNN
F 2 "" V 9180 3750 50  0000 C CNN
F 3 "" H 9250 3750 50  0000 C CNN
	1    9250 3750
	1    0    0    -1  
$EndComp
$Comp
L GND #PWR14
U 1 1 5819A2C7
P 9250 5700
F 0 "#PWR14" H 9250 5450 50  0001 C CNN
F 1 "GND" H 9250 5550 50  0000 C CNN
F 2 "" H 9250 5700 50  0000 C CNN
F 3 "" H 9250 5700 50  0000 C CNN
	1    9250 5700
	1    0    0    -1  
$EndComp
Wire Wire Line
	9250 3450 9250 3600
Wire Wire Line
	9250 3900 9250 4050
Wire Wire Line
	9250 4450 9250 4650
Wire Wire Line
	9250 5050 9250 5700
Wire Wire Line
	8950 4850 8850 4850
$Comp
L VPP #PWR13
U 1 1 5819A2D2
P 9250 3450
F 0 "#PWR13" H 9250 3300 50  0001 C CNN
F 1 "VPP" H 9250 3600 50  0000 C CNN
F 2 "" H 9250 3450 50  0000 C CNN
F 3 "" H 9250 3450 50  0000 C CNN
	1    9250 3450
	1    0    0    -1  
$EndComp
$Comp
L LED-RESCUE-generic-device D11
U 1 1 5819A8F1
P 10300 4250
F 0 "D11" H 10300 4350 50  0000 C CNN
F 1 "LED" H 10300 4150 50  0000 C CNN
F 2 "" H 10300 4250 50  0000 C CNN
F 3 "" H 10300 4250 50  0000 C CNN
	1    10300 4250
	0    -1   -1   0   
$EndComp
$Comp
L Q_NPN_EBC Q6
U 1 1 5819A8F7
P 10200 4850
F 0 "Q6" H 10500 4900 50  0000 R CNN
F 1 "Q_NPN_EBC" H 10800 4800 50  0000 R CNN
F 2 "" H 10400 4950 50  0000 C CNN
F 3 "" H 10200 4850 50  0000 C CNN
	1    10200 4850
	1    0    0    -1  
$EndComp
$Comp
L R R12
U 1 1 5819A8FD
P 10300 3750
F 0 "R12" V 10380 3750 50  0000 C CNN
F 1 "100" V 10300 3750 50  0000 C CNN
F 2 "" V 10230 3750 50  0000 C CNN
F 3 "" H 10300 3750 50  0000 C CNN
	1    10300 3750
	1    0    0    -1  
$EndComp
$Comp
L GND #PWR20
U 1 1 5819A903
P 10300 5700
F 0 "#PWR20" H 10300 5450 50  0001 C CNN
F 1 "GND" H 10300 5550 50  0000 C CNN
F 2 "" H 10300 5700 50  0000 C CNN
F 3 "" H 10300 5700 50  0000 C CNN
	1    10300 5700
	1    0    0    -1  
$EndComp
Wire Wire Line
	10300 3450 10300 3600
Wire Wire Line
	10300 3900 10300 4050
Wire Wire Line
	10300 4450 10300 4650
Wire Wire Line
	10300 5050 10300 5700
Wire Wire Line
	10000 4850 9900 4850
$Comp
L VPP #PWR19
U 1 1 5819A90E
P 10300 3450
F 0 "#PWR19" H 10300 3300 50  0001 C CNN
F 1 "VPP" H 10300 3600 50  0000 C CNN
F 2 "" H 10300 3450 50  0000 C CNN
F 3 "" H 10300 3450 50  0000 C CNN
	1    10300 3450
	1    0    0    -1  
$EndComp
Wire Wire Line
	7900 4850 7800 4850
Wire Wire Line
	7800 4850 7800 4950
$Comp
L R R9
U 1 1 5819B06E
P 7800 5100
F 0 "R9" V 7880 5100 50  0000 C CNN
F 1 "1k" V 7800 5100 50  0000 C CNN
F 2 "" V 7730 5100 50  0000 C CNN
F 3 "" H 7800 5100 50  0000 C CNN
	1    7800 5100
	1    0    0    -1  
$EndComp
Wire Wire Line
	8850 4850 8850 4950
Wire Wire Line
	9900 4850 9900 4950
$Comp
L R R13
U 1 1 5819B350
P 8850 5100
F 0 "R13" V 8930 5100 50  0000 C CNN
F 1 "1k" V 8850 5100 50  0000 C CNN
F 2 "" V 8780 5100 50  0000 C CNN
F 3 "" H 8850 5100 50  0000 C CNN
	1    8850 5100
	1    0    0    -1  
$EndComp
$Comp
L R R14
U 1 1 5819B3F8
P 9900 5100
F 0 "R14" V 9980 5100 50  0000 C CNN
F 1 "1k" V 9900 5100 50  0000 C CNN
F 2 "" V 9830 5100 50  0000 C CNN
F 3 "" H 9900 5100 50  0000 C CNN
	1    9900 5100
	1    0    0    -1  
$EndComp
Wire Wire Line
	9900 5250 9900 5550
Wire Wire Line
	9900 5550 9750 5550
Wire Wire Line
	8850 5550 8850 5250
Wire Wire Line
	8700 5550 8850 5550
Wire Wire Line
	7800 5250 7800 5550
Wire Wire Line
	7800 5550 7650 5550
Text GLabel 7650 5550 0    60   Input ~ 0
OUT1
Text GLabel 8700 5550 0    60   Input ~ 0
OUT2
Text GLabel 9750 5550 0    60   Input ~ 0
OUT3
Text GLabel 5100 5700 2    60   Output ~ 0
OUT1
Text GLabel 5400 5800 2    60   Output ~ 0
OUT2
Text GLabel 5100 5900 2    60   Output ~ 0
OUT3
Wire Wire Line
	4300 5700 5100 5700
Wire Wire Line
	4300 5800 5400 5800
Wire Wire Line
	4300 5900 5100 5900
$EndSCHEMATC
