EESchema Schematic File Version 2
LIBS:power
LIBS:device
LIBS:transistors
LIBS:conn
LIBS:linear
LIBS:regul
LIBS:74xx
LIBS:cmos4000
LIBS:adc-dac
LIBS:memory
LIBS:xilinx
LIBS:microcontrollers
LIBS:dsp
LIBS:microchip
LIBS:analog_switches
LIBS:motorola
LIBS:texas
LIBS:intel
LIBS:audio
LIBS:interface
LIBS:digital-audio
LIBS:philips
LIBS:display
LIBS:cypress
LIBS:siliconi
LIBS:opto
LIBS:atmel
LIBS:contrib
LIBS:valves
LIBS:LID
LIBS:and-gate-cache
EELAYER 26 0
EELAYER END
$Descr A4 11693 8268
encoding utf-8
Sheet 1 1
Title ""
Date ""
Rev ""
Comp ""
Comment1 ""
Comment2 ""
Comment3 ""
Comment4 ""
$EndDescr
$Comp
L GND #PWR7
U 1 1 5844B373
P 7100 3200
F 0 "#PWR7" H 7100 2950 50  0001 C CNN
F 1 "GND" H 7100 3050 50  0000 C CNN
F 2 "" H 7100 3200 50  0000 C CNN
F 3 "" H 7100 3200 50  0000 C CNN
	1    7100 3200
	1    0    0    -1  
$EndComp
$Comp
L C C1
U 1 1 5844B374
P 5950 2750
F 0 "C1" H 5975 2850 50  0000 L CNN
F 1 "0.1uF" H 5975 2650 50  0000 L CNN
F 2 "Capacitors_SMD:C_1206_HandSoldering" H 5988 2600 50  0001 C CNN
F 3 "" H 5950 2750 50  0000 C CNN
	1    5950 2750
	1    0    0    -1  
$EndComp
$Comp
L VPP #PWR6
U 1 1 5844B376
P 5950 1950
F 0 "#PWR6" H 5950 1800 50  0001 C CNN
F 1 "VPP" H 5950 2100 50  0000 C CNN
F 2 "" H 5950 1950 50  0000 C CNN
F 3 "" H 5950 1950 50  0000 C CNN
	1    5950 1950
	1    0    0    -1  
$EndComp
$Comp
L +3.3V #PWR10
U 1 1 5844B377
P 7500 1950
F 0 "#PWR10" H 7500 1800 50  0001 C CNN
F 1 "+3.3V" H 7500 2090 50  0000 C CNN
F 2 "" H 7500 1950 50  0000 C CNN
F 3 "" H 7500 1950 50  0000 C CNN
	1    7500 1950
	1    0    0    -1  
$EndComp
Text GLabel 4600 1150 2    60   BiDi ~ 0
RA
Text GLabel 4600 1350 2    60   BiDi ~ 0
RC
Text GLabel 4800 1450 2    60   BiDi ~ 0
RD
Text GLabel 4800 1250 2    60   BiDi ~ 0
RB
$Comp
L GND #PWR4
U 1 1 5844B378
P 3200 2300
F 0 "#PWR4" H 3200 2050 50  0001 C CNN
F 1 "GND" H 3200 2150 50  0000 C CNN
F 2 "" H 3200 2300 50  0000 C CNN
F 3 "" H 3200 2300 50  0000 C CNN
	1    3200 2300
	1    0    0    -1  
$EndComp
$Comp
L +3.3V #PWR1
U 1 1 5844B37A
P 750 4100
F 0 "#PWR1" H 750 3950 50  0001 C CNN
F 1 "+3.3V" H 750 4240 50  0000 C CNN
F 2 "" H 750 4100 50  0000 C CNN
F 3 "" H 750 4100 50  0000 C CNN
	1    750  4100
	1    0    0    -1  
$EndComp
$Comp
L GND #PWR2
U 1 1 5844B37B
P 750 6300
F 0 "#PWR2" H 750 6050 50  0001 C CNN
F 1 "GND" H 750 6150 50  0000 C CNN
F 2 "" H 750 6300 50  0000 C CNN
F 3 "" H 750 6300 50  0000 C CNN
	1    750  6300
	1    0    0    -1  
$EndComp
Text GLabel 3600 6100 2    60   Input ~ 0
RESET
Text GLabel 3600 5400 2    60   BiDi ~ 0
SDA0/MOSI
Text GLabel 3600 5600 2    60   BiDi ~ 0
SCL0/SCK
Text GLabel 4200 5500 2    60   Output ~ 0
MISO
$Comp
L +3.3V #PWR3
U 1 1 5844B37C
P 1650 2400
F 0 "#PWR3" H 1650 2250 50  0001 C CNN
F 1 "+3.3V" H 1650 2540 50  0000 C CNN
F 2 "" H 1650 2400 50  0000 C CNN
F 3 "" H 1650 2400 50  0000 C CNN
	1    1650 2400
	1    0    0    -1  
$EndComp
$Comp
L R R1
U 1 1 5844B37D
P 1650 2650
F 0 "R1" V 1730 2650 50  0000 C CNN
F 1 "1k" V 1650 2650 50  0000 C CNN
F 2 "Resistors_SMD:R_1206_HandSoldering" V 1580 2650 50  0001 C CNN
F 3 "" H 1650 2650 50  0000 C CNN
	1    1650 2650
	1    0    0    -1  
$EndComp
Text GLabel 1650 2900 3    60   Input ~ 0
RESET
Text GLabel 3600 4300 2    60   BiDi ~ 0
SDA1
Text GLabel 3600 4500 2    60   BiDi ~ 0
SCL1
$Comp
L R R2
U 1 1 5844B37E
P 6000 4450
F 0 "R2" V 6080 4450 50  0000 C CNN
F 1 "20k" V 6000 4450 50  0000 C CNN
F 2 "Resistors_SMD:R_1206_HandSoldering" V 5930 4450 50  0001 C CNN
F 3 "" H 6000 4450 50  0000 C CNN
	1    6000 4450
	0    1    1    0   
$EndComp
$Comp
L R R3
U 1 1 5844B37F
P 6000 4650
F 0 "R3" V 6080 4650 50  0000 C CNN
F 1 "20k" V 6000 4650 50  0000 C CNN
F 2 "Resistors_SMD:R_1206_HandSoldering" V 5930 4650 50  0001 C CNN
F 3 "" H 6000 4650 50  0000 C CNN
	1    6000 4650
	0    1    1    0   
$EndComp
$Comp
L R R4
U 1 1 5844B380
P 6000 4850
F 0 "R4" V 6080 4850 50  0000 C CNN
F 1 "20k" V 6000 4850 50  0000 C CNN
F 2 "Resistors_SMD:R_1206_HandSoldering" V 5930 4850 50  0001 C CNN
F 3 "" H 6000 4850 50  0000 C CNN
	1    6000 4850
	0    1    1    0   
$EndComp
$Comp
L R R5
U 1 1 5844B381
P 6000 5050
F 0 "R5" V 6080 5050 50  0000 C CNN
F 1 "20k" V 6000 5050 50  0000 C CNN
F 2 "Resistors_SMD:R_1206_HandSoldering" V 5930 5050 50  0001 C CNN
F 3 "" H 6000 5050 50  0000 C CNN
	1    6000 5050
	0    1    1    0   
$EndComp
Text GLabel 6350 4450 2    60   BiDi ~ 0
RA
Text GLabel 6350 4650 2    60   BiDi ~ 0
RB
Text GLabel 6350 4850 2    60   BiDi ~ 0
RC
Text GLabel 6350 5050 2    60   BiDi ~ 0
RD
$Comp
L D D8
U 1 1 5844B382
P 5400 4300
F 0 "D8" H 5400 4400 50  0000 C CNN
F 1 "1N4148" H 5400 4200 50  0000 C CNN
F 2 "LID:SOD-123" H 5400 4300 50  0001 C CNN
F 3 "" H 5400 4300 50  0000 C CNN
	1    5400 4300
	0    1    1    0   
$EndComp
$Comp
L D D3
U 1 1 5844B383
P 5100 4300
F 0 "D3" H 5100 4400 50  0000 C CNN
F 1 "1N4148" H 5100 4200 50  0000 C CNN
F 2 "LID:SOD-123" H 5100 4300 50  0001 C CNN
F 3 "" H 5100 4300 50  0000 C CNN
	1    5100 4300
	0    1    1    0   
$EndComp
$Comp
L D D2
U 1 1 5844B384
P 4800 4300
F 0 "D2" H 4800 4400 50  0000 C CNN
F 1 "1N4148" H 4800 4200 50  0000 C CNN
F 2 "LID:SOD-123" H 4800 4300 50  0001 C CNN
F 3 "" H 4800 4300 50  0000 C CNN
	1    4800 4300
	0    1    1    0   
$EndComp
$Comp
L D D1
U 1 1 5844B385
P 4500 4300
F 0 "D1" H 4500 4400 50  0000 C CNN
F 1 "1N4148" H 4500 4200 50  0000 C CNN
F 2 "LID:SOD-123" H 4500 4300 50  0001 C CNN
F 3 "" H 4500 4300 50  0000 C CNN
	1    4500 4300
	0    1    1    0   
$EndComp
$Comp
L +3.3V #PWR5
U 1 1 5844B386
P 5400 3850
F 0 "#PWR5" H 5400 3700 50  0001 C CNN
F 1 "+3.3V" H 5400 3990 50  0000 C CNN
F 2 "" H 5400 3850 50  0000 C CNN
F 3 "" H 5400 3850 50  0000 C CNN
	1    5400 3850
	1    0    0    -1  
$EndComp
Text GLabel 2250 1150 0    60   BiDi ~ 0
SDA1
Text GLabel 2250 1350 0    60   BiDi ~ 0
SCL1
Text GLabel 2250 1000 0    60   BiDi ~ 0
SCL0/SCK
Text GLabel 2250 1500 0    60   BiDi ~ 0
SDA0/MOSI
Text GLabel 2250 1700 0    60   Output ~ 0
MISO
Text GLabel 2650 2600 3    60   Input ~ 0
RESET
$Comp
L DEVICE_SOCKET N1
U 1 1 5844B388
P 3200 1350
F 0 "N1" H 3500 900 60  0000 R CNN
F 1 "DEVICE_SOCKET" H 3200 1700 60  0000 C CNN
F 2 "LID:LID_NODE_CONN" H 3200 1700 60  0001 C CNN
F 3 "" H 3200 1700 60  0001 C CNN
	1    3200 1350
	1    0    0    -1  
$EndComp
Wire Wire Line
	5500 3100 5150 3100
Wire Wire Line
	5500 2200 5500 2500
Wire Wire Line
	5500 2500 5500 2800
Wire Wire Line
	5500 2800 5500 3100
Wire Wire Line
	5500 2800 5150 2800
Wire Wire Line
	5150 2500 5500 2500
Connection ~ 5500 2800
Wire Wire Line
	5150 2200 5500 2200
Wire Wire Line
	5500 2200 5950 2200
Wire Wire Line
	5950 2200 6100 2200
Connection ~ 5500 2500
Connection ~ 5500 2200
Wire Wire Line
	5950 1950 5950 2200
Wire Wire Line
	5950 2200 5950 2400
Wire Wire Line
	5950 2400 5950 2600
Connection ~ 5950 2200
Wire Wire Line
	5950 2900 5950 3000
Wire Wire Line
	7500 3000 7500 2900
Wire Wire Line
	5950 3000 7100 3000
Wire Wire Line
	7100 3000 7500 3000
Wire Wire Line
	7500 1950 7500 2200
Wire Wire Line
	7500 2200 7500 2600
Wire Wire Line
	7100 2200 7500 2200
Connection ~ 7500 2200
Wire Wire Line
	3700 1450 4200 1450
Wire Wire Line
	4200 1450 4800 1450
Wire Wire Line
	4200 1450 4200 3100
Wire Wire Line
	4200 3100 4850 3100
Wire Wire Line
	3700 1350 4300 1350
Wire Wire Line
	4300 1350 4600 1350
Wire Wire Line
	4300 1350 4300 2800
Wire Wire Line
	4300 2800 4850 2800
Wire Wire Line
	3700 1250 4400 1250
Wire Wire Line
	4400 1250 4800 1250
Wire Wire Line
	4400 1250 4400 2500
Wire Wire Line
	4400 2500 4850 2500
Wire Wire Line
	4500 1150 4500 2200
Wire Wire Line
	4500 2200 4850 2200
Wire Wire Line
	3200 2300 3200 1950
Wire Wire Line
	900  4300 750  4300
Wire Wire Line
	750  4100 750  4300
Wire Wire Line
	750  4300 750  4600
Wire Wire Line
	750  4600 900  4600
Connection ~ 750  4300
Wire Wire Line
	900  5800 750  5800
Wire Wire Line
	750  5800 750  6100
Wire Wire Line
	750  6100 750  6300
Wire Wire Line
	750  6100 900  6100
Connection ~ 750  6100
Wire Wire Line
	3400 6100 3600 6100
Wire Wire Line
	3400 5400 3600 5400
Wire Wire Line
	3400 5600 3600 5600
Wire Wire Line
	3400 5500 4200 5500
Wire Wire Line
	1650 2400 1650 2500
Wire Wire Line
	1650 2800 1650 2900
Wire Wire Line
	3400 4300 3600 4300
Wire Wire Line
	3400 4500 3600 4500
Wire Wire Line
	3400 4600 4500 4600
Wire Wire Line
	4500 4600 5700 4600
Wire Wire Line
	3400 4700 4800 4700
Wire Wire Line
	4800 4700 5800 4700
Wire Wire Line
	3400 4800 5100 4800
Wire Wire Line
	5100 4800 5800 4800
Wire Wire Line
	3400 4900 5400 4900
Wire Wire Line
	5400 4900 5700 4900
Wire Wire Line
	5700 4600 5700 4450
Wire Wire Line
	5700 4450 5850 4450
Wire Wire Line
	5800 4700 5800 4650
Wire Wire Line
	5800 4650 5850 4650
Wire Wire Line
	5800 4800 5800 4850
Wire Wire Line
	5800 4850 5850 4850
Wire Wire Line
	5700 4900 5700 5050
Wire Wire Line
	5700 5050 5850 5050
Wire Wire Line
	6150 4450 6350 4450
Wire Wire Line
	6150 4650 6350 4650
Wire Wire Line
	6150 4850 6350 4850
Wire Wire Line
	6150 5050 6350 5050
Wire Wire Line
	4500 4450 4500 4600
Connection ~ 4500 4600
Wire Wire Line
	4800 4450 4800 4700
Connection ~ 4800 4700
Wire Wire Line
	5100 4450 5100 4800
Connection ~ 5100 4800
Wire Wire Line
	5400 4450 5400 4900
Connection ~ 5400 4900
Wire Wire Line
	4500 4150 4500 4000
Wire Wire Line
	4500 4000 4800 4000
Wire Wire Line
	4800 4000 5100 4000
Wire Wire Line
	5100 4000 5400 4000
Wire Wire Line
	4800 4000 4800 4150
Wire Wire Line
	5100 4000 5100 4150
Connection ~ 4800 4000
Wire Wire Line
	5400 3850 5400 4000
Wire Wire Line
	5400 4000 5400 4150
Connection ~ 5100 4000
Connection ~ 5400 4000
Wire Wire Line
	2250 1000 2350 1000
Wire Wire Line
	2350 1000 2350 1150
Wire Wire Line
	2250 1150 2350 1150
Wire Wire Line
	2350 1150 2700 1150
Connection ~ 2350 1150
Wire Wire Line
	2250 1350 2350 1350
Wire Wire Line
	2350 1250 2350 1350
Wire Wire Line
	2350 1350 2350 1500
Wire Wire Line
	2350 1500 2250 1500
Wire Wire Line
	2350 1250 2700 1250
Connection ~ 2350 1350
Wire Wire Line
	2250 1700 2450 1700
Wire Wire Line
	2450 1700 2450 1350
Wire Wire Line
	2450 1350 2700 1350
Wire Wire Line
	2700 1450 2550 1450
Wire Wire Line
	2550 1450 2550 1900
Wire Wire Line
	3700 1150 4500 1150
Wire Wire Line
	4500 1150 4600 1150
Connection ~ 4500 1150
Connection ~ 4400 1250
Connection ~ 4300 1350
Connection ~ 4200 1450
$Comp
L R R10
U 1 1 5844B38A
P 8450 2450
F 0 "R10" V 8530 2450 50  0000 C CNN
F 1 "2k" V 8450 2450 50  0000 C CNN
F 2 "Resistors_SMD:R_1206_HandSoldering" V 8380 2450 50  0001 C CNN
F 3 "" H 8450 2450 50  0000 C CNN
	1    8450 2450
	1    0    0    -1  
$EndComp
Wire Wire Line
	8450 2050 8450 2150
Wire Wire Line
	8450 2150 8450 2300
$Comp
L GND #PWR14
U 1 1 5844B38B
P 8450 2850
F 0 "#PWR14" H 8450 2600 50  0001 C CNN
F 1 "GND" H 8450 2700 50  0000 C CNN
F 2 "" H 8450 2850 50  0000 C CNN
F 3 "" H 8450 2850 50  0000 C CNN
	1    8450 2850
	1    0    0    -1  
$EndComp
Wire Wire Line
	8450 2600 8450 2850
Wire Wire Line
	8450 1200 8450 1650
$Comp
L +3.3V #PWR13
U 1 1 5844B38C
P 8450 1200
F 0 "#PWR13" H 8450 1050 50  0001 C CNN
F 1 "+3.3V" H 8450 1340 50  0000 C CNN
F 2 "" H 8450 1200 50  0000 C CNN
F 3 "" H 8450 1200 50  0000 C CNN
	1    8450 1200
	1    0    0    -1  
$EndComp
Wire Wire Line
	8450 2150 8750 2150
Connection ~ 8450 2150
Text GLabel 8750 2150 2    60   Input ~ 0
IN1
$Comp
L R R13
U 1 1 5844B38E
P 9300 2450
F 0 "R13" V 9380 2450 50  0000 C CNN
F 1 "2k" V 9300 2450 50  0000 C CNN
F 2 "Resistors_SMD:R_1206_HandSoldering" V 9230 2450 50  0001 C CNN
F 3 "" H 9300 2450 50  0000 C CNN
	1    9300 2450
	1    0    0    -1  
$EndComp
Wire Wire Line
	9300 2050 9300 2150
Wire Wire Line
	9300 2150 9300 2300
$Comp
L GND #PWR18
U 1 1 5844B38F
P 9300 2850
F 0 "#PWR18" H 9300 2600 50  0001 C CNN
F 1 "GND" H 9300 2700 50  0000 C CNN
F 2 "" H 9300 2850 50  0000 C CNN
F 3 "" H 9300 2850 50  0000 C CNN
	1    9300 2850
	1    0    0    -1  
$EndComp
Wire Wire Line
	9300 2600 9300 2850
Wire Wire Line
	9300 1200 9300 1650
$Comp
L +3.3V #PWR17
U 1 1 5844B390
P 9300 1200
F 0 "#PWR17" H 9300 1050 50  0001 C CNN
F 1 "+3.3V" H 9300 1340 50  0000 C CNN
F 2 "" H 9300 1200 50  0000 C CNN
F 3 "" H 9300 1200 50  0000 C CNN
	1    9300 1200
	1    0    0    -1  
$EndComp
Wire Wire Line
	9300 2150 9600 2150
Connection ~ 9300 2150
Text GLabel 9600 2150 2    60   Input ~ 0
IN2
Text GLabel 3950 6000 2    60   Input ~ 0
IN1
Text GLabel 3500 5000 2    60   Input ~ 0
IN2
Text GLabel 3900 4400 2    60   Output ~ 0
OUT4
Wire Wire Line
	3400 4400 3900 4400
Wire Wire Line
	3400 5000 3500 5000
Wire Wire Line
	3400 6000 3950 6000
$Comp
L R R7
U 1 1 5844B397
P 7150 4100
F 0 "R7" V 7230 4100 50  0000 C CNN
F 1 "100" V 7150 4100 50  0000 C CNN
F 2 "Resistors_SMD:R_1206_HandSoldering" V 7080 4100 50  0001 C CNN
F 3 "" H 7150 4100 50  0000 C CNN
	1    7150 4100
	1    0    0    -1  
$EndComp
$Comp
L GND #PWR9
U 1 1 5844B398
P 7150 6050
F 0 "#PWR9" H 7150 5800 50  0001 C CNN
F 1 "GND" H 7150 5900 50  0000 C CNN
F 2 "" H 7150 6050 50  0000 C CNN
F 3 "" H 7150 6050 50  0000 C CNN
	1    7150 6050
	1    0    0    -1  
$EndComp
Wire Wire Line
	7150 3800 7150 3950
Wire Wire Line
	7150 4250 7150 4450
Wire Wire Line
	7150 4750 7150 5000
Wire Wire Line
	7150 5400 7150 6050
$Comp
L VPP #PWR8
U 1 1 5844B399
P 7150 3800
F 0 "#PWR8" H 7150 3650 50  0001 C CNN
F 1 "VPP" H 7150 3950 50  0000 C CNN
F 2 "" H 7150 3800 50  0000 C CNN
F 3 "" H 7150 3800 50  0000 C CNN
	1    7150 3800
	1    0    0    -1  
$EndComp
$Comp
L R R9
U 1 1 5844B39C
P 8200 4100
F 0 "R9" V 8280 4100 50  0000 C CNN
F 1 "100" V 8200 4100 50  0000 C CNN
F 2 "Resistors_SMD:R_1206_HandSoldering" V 8130 4100 50  0001 C CNN
F 3 "" H 8200 4100 50  0000 C CNN
	1    8200 4100
	1    0    0    -1  
$EndComp
$Comp
L GND #PWR12
U 1 1 5844B39D
P 8200 6050
F 0 "#PWR12" H 8200 5800 50  0001 C CNN
F 1 "GND" H 8200 5900 50  0000 C CNN
F 2 "" H 8200 6050 50  0000 C CNN
F 3 "" H 8200 6050 50  0000 C CNN
	1    8200 6050
	1    0    0    -1  
$EndComp
Wire Wire Line
	8200 3800 8200 3950
Wire Wire Line
	8200 4250 8200 4450
Wire Wire Line
	8200 4750 8200 5000
Wire Wire Line
	8200 5400 8200 6050
Wire Wire Line
	7900 5200 7800 5200
$Comp
L VPP #PWR11
U 1 1 5844B39E
P 8200 3800
F 0 "#PWR11" H 8200 3650 50  0001 C CNN
F 1 "VPP" H 8200 3950 50  0000 C CNN
F 2 "" H 8200 3800 50  0000 C CNN
F 3 "" H 8200 3800 50  0000 C CNN
	1    8200 3800
	1    0    0    -1  
$EndComp
$Comp
L R R12
U 1 1 5844B3A1
P 9250 4100
F 0 "R12" V 9330 4100 50  0000 C CNN
F 1 "100" V 9250 4100 50  0000 C CNN
F 2 "Resistors_SMD:R_1206_HandSoldering" V 9180 4100 50  0001 C CNN
F 3 "" H 9250 4100 50  0000 C CNN
	1    9250 4100
	1    0    0    -1  
$EndComp
$Comp
L GND #PWR16
U 1 1 5844B3A2
P 9250 6050
F 0 "#PWR16" H 9250 5800 50  0001 C CNN
F 1 "GND" H 9250 5900 50  0000 C CNN
F 2 "" H 9250 6050 50  0000 C CNN
F 3 "" H 9250 6050 50  0000 C CNN
	1    9250 6050
	1    0    0    -1  
$EndComp
Wire Wire Line
	9250 3800 9250 3950
Wire Wire Line
	9250 4250 9250 4450
Wire Wire Line
	9250 4750 9250 5000
Wire Wire Line
	9250 5400 9250 6050
Wire Wire Line
	8950 5200 8850 5200
$Comp
L VPP #PWR15
U 1 1 5844B3A3
P 9250 3800
F 0 "#PWR15" H 9250 3650 50  0001 C CNN
F 1 "VPP" H 9250 3950 50  0000 C CNN
F 2 "" H 9250 3800 50  0000 C CNN
F 3 "" H 9250 3800 50  0000 C CNN
	1    9250 3800
	1    0    0    -1  
$EndComp
Wire Wire Line
	6850 5200 6750 5200
Wire Wire Line
	6750 5200 6750 5300
$Comp
L R R6
U 1 1 5844B3A4
P 6750 5450
F 0 "R6" V 6830 5450 50  0000 C CNN
F 1 "10k" V 6750 5450 50  0000 C CNN
F 2 "Resistors_SMD:R_1206_HandSoldering" V 6680 5450 50  0001 C CNN
F 3 "" H 6750 5450 50  0000 C CNN
	1    6750 5450
	1    0    0    -1  
$EndComp
Wire Wire Line
	7800 5200 7800 5300
Wire Wire Line
	8850 5200 8850 5300
$Comp
L R R8
U 1 1 5844B3A5
P 7800 5450
F 0 "R8" V 7880 5450 50  0000 C CNN
F 1 "10k" V 7800 5450 50  0000 C CNN
F 2 "Resistors_SMD:R_1206_HandSoldering" V 7730 5450 50  0001 C CNN
F 3 "" H 7800 5450 50  0000 C CNN
	1    7800 5450
	1    0    0    -1  
$EndComp
$Comp
L R R11
U 1 1 5844B3A6
P 8850 5450
F 0 "R11" V 8930 5450 50  0000 C CNN
F 1 "10k" V 8850 5450 50  0000 C CNN
F 2 "Resistors_SMD:R_1206_HandSoldering" V 8780 5450 50  0001 C CNN
F 3 "" H 8850 5450 50  0000 C CNN
	1    8850 5450
	1    0    0    -1  
$EndComp
Wire Wire Line
	8850 5600 8850 5900
Wire Wire Line
	8850 5900 8700 5900
Wire Wire Line
	7800 5900 7800 5600
Wire Wire Line
	7650 5900 7800 5900
Wire Wire Line
	6750 5600 6750 5900
Wire Wire Line
	6750 5900 6600 5900
Text GLabel 6600 5900 0    60   Input ~ 0
OUT1
Text GLabel 7650 5900 0    60   Input ~ 0
OUT2
Text GLabel 8700 5900 0    60   Input ~ 0
OUT3
Text GLabel 4200 5700 2    60   Output ~ 0
OUT1
Text GLabel 4500 5800 2    60   Output ~ 0
OUT2
Text GLabel 4200 5900 2    60   Output ~ 0
OUT3
Wire Wire Line
	3400 5700 4200 5700
Wire Wire Line
	3400 5800 4500 5800
Wire Wire Line
	3400 5900 4200 5900
$Comp
L R R15
U 1 1 5844CD51
P 10300 4100
F 0 "R15" V 10380 4100 50  0000 C CNN
F 1 "100" V 10300 4100 50  0000 C CNN
F 2 "Resistors_SMD:R_1206_HandSoldering" V 10230 4100 50  0001 C CNN
F 3 "" H 10300 4100 50  0000 C CNN
	1    10300 4100
	1    0    0    -1  
$EndComp
$Comp
L GND #PWR20
U 1 1 5844CD57
P 10300 6050
F 0 "#PWR20" H 10300 5800 50  0001 C CNN
F 1 "GND" H 10300 5900 50  0000 C CNN
F 2 "" H 10300 6050 50  0000 C CNN
F 3 "" H 10300 6050 50  0000 C CNN
	1    10300 6050
	1    0    0    -1  
$EndComp
Wire Wire Line
	10300 3800 10300 3950
Wire Wire Line
	10300 4250 10300 4450
Wire Wire Line
	10300 4750 10300 5000
Wire Wire Line
	10300 5400 10300 6050
Wire Wire Line
	10000 5200 9900 5200
$Comp
L VPP #PWR19
U 1 1 5844CD62
P 10300 3800
F 0 "#PWR19" H 10300 3650 50  0001 C CNN
F 1 "VPP" H 10300 3950 50  0000 C CNN
F 2 "" H 10300 3800 50  0000 C CNN
F 3 "" H 10300 3800 50  0000 C CNN
	1    10300 3800
	1    0    0    -1  
$EndComp
Wire Wire Line
	9900 5200 9900 5300
$Comp
L R R14
U 1 1 5844CD69
P 9900 5450
F 0 "R14" V 9980 5450 50  0000 C CNN
F 1 "10k" V 9900 5450 50  0000 C CNN
F 2 "Resistors_SMD:R_1206_HandSoldering" V 9830 5450 50  0001 C CNN
F 3 "" H 9900 5450 50  0000 C CNN
	1    9900 5450
	1    0    0    -1  
$EndComp
Wire Wire Line
	9900 5600 9900 5900
Wire Wire Line
	9900 5900 9750 5900
Text GLabel 9750 5900 0    60   Input ~ 0
OUT4
$Comp
L ATTINY261A U1
U 1 1 5844FB61
P 2200 5200
F 0 "U1" H 1150 4150 60  0000 C CNN
F 1 "ATTINY261A" H 1350 6250 60  0000 C CNN
F 2 "Housings_SOIC:SOIC-20W_7.5x12.8mm_Pitch1.27mm" H 1150 4150 60  0001 C CNN
F 3 "" H 1150 4150 60  0001 C CNN
	1    2200 5200
	1    0    0    -1  
$EndComp
$Comp
L C C2
U 1 1 584555E6
P 7500 2750
F 0 "C2" H 7525 2850 50  0000 L CNN
F 1 "10uF" H 7525 2650 50  0000 L CNN
F 2 "Capacitors_SMD:C_1206_HandSoldering" H 7538 2600 50  0001 C CNN
F 3 "" H 7500 2750 50  0000 C CNN
	1    7500 2750
	1    0    0    -1  
$EndComp
$Comp
L D_Schottky D4
U 1 1 5845672A
P 5000 2200
F 0 "D4" H 5000 2300 50  0000 C CNN
F 1 "MBR0520LT1G" H 5000 2100 50  0000 C CNN
F 2 "LID:SOD-123" H 5000 2200 50  0001 C CNN
F 3 "" H 5000 2200 50  0000 C CNN
	1    5000 2200
	-1   0    0    1   
$EndComp
$Comp
L D_Schottky D5
U 1 1 584567CE
P 5000 2500
F 0 "D5" H 5000 2600 50  0000 C CNN
F 1 "MBR0520LT1G" H 5000 2400 50  0000 C CNN
F 2 "LID:SOD-123" H 5000 2500 50  0001 C CNN
F 3 "" H 5000 2500 50  0000 C CNN
	1    5000 2500
	-1   0    0    1   
$EndComp
$Comp
L D_Schottky D6
U 1 1 58456872
P 5000 2800
F 0 "D6" H 5000 2900 50  0000 C CNN
F 1 "MBR0520LT1G" H 5000 2700 50  0000 C CNN
F 2 "LID:SOD-123" H 5000 2800 50  0001 C CNN
F 3 "" H 5000 2800 50  0000 C CNN
	1    5000 2800
	-1   0    0    1   
$EndComp
$Comp
L D_Schottky D7
U 1 1 58456908
P 5000 3100
F 0 "D7" H 5000 3200 50  0000 C CNN
F 1 "MBR0520LT1G" H 5000 3000 50  0000 C CNN
F 2 "LID:SOD-123" H 5000 3100 50  0001 C CNN
F 3 "" H 5000 3100 50  0000 C CNN
	1    5000 3100
	-1   0    0    1   
$EndComp
$Comp
L XC6210B U2
U 1 1 584578F0
P 6600 2300
F 0 "U2" H 6600 2050 60  0000 C CNN
F 1 "XC6210B" H 6600 2550 60  0000 C CNN
F 2 "TO_SOT_Packages_SMD:SOT-23-5" H 6600 2300 60  0001 C CNN
F 3 "" H 6600 2300 60  0001 C CNN
	1    6600 2300
	1    0    0    -1  
$EndComp
Wire Wire Line
	6100 2400 5950 2400
Connection ~ 5950 2400
Wire Wire Line
	7100 2400 7100 3000
Wire Wire Line
	7100 3000 7100 3200
Connection ~ 7100 3000
$Comp
L SPDT S1
U 1 1 587BFF68
P 2550 2250
F 0 "S1" H 2550 2100 60  0000 C CNN
F 1 "SPDT" H 2550 2400 60  0000 C CNN
F 2 "LID:JS102011" H 2550 2250 60  0001 C CNN
F 3 "" H 2550 2250 60  0001 C CNN
	1    2550 2250
	0    -1   -1   0   
$EndComp
$Comp
L Q_NPN_BEC Q1
U 1 1 587C16F2
P 7050 5200
F 0 "Q1" H 7250 5250 50  0000 L CNN
F 1 "Q_NPN_BEC" H 7250 5150 50  0000 L CNN
F 2 "TO_SOT_Packages_SMD:SOT-23_Handsoldering" H 7250 5300 50  0001 C CNN
F 3 "" H 7050 5200 50  0000 C CNN
	1    7050 5200
	1    0    0    -1  
$EndComp
$Comp
L Q_NPN_BEC Q2
U 1 1 587C1979
P 8100 5200
F 0 "Q2" H 8300 5250 50  0000 L CNN
F 1 "Q_NPN_BEC" H 8300 5150 50  0000 L CNN
F 2 "TO_SOT_Packages_SMD:SOT-23_Handsoldering" H 8300 5300 50  0001 C CNN
F 3 "" H 8100 5200 50  0000 C CNN
	1    8100 5200
	1    0    0    -1  
$EndComp
$Comp
L Q_NPN_BEC Q4
U 1 1 587C1A22
P 9150 5200
F 0 "Q4" H 9350 5250 50  0000 L CNN
F 1 "Q_NPN_BEC" H 9350 5150 50  0000 L CNN
F 2 "TO_SOT_Packages_SMD:SOT-23_Handsoldering" H 9350 5300 50  0001 C CNN
F 3 "" H 9150 5200 50  0000 C CNN
	1    9150 5200
	1    0    0    -1  
$EndComp
$Comp
L Q_NPN_BEC Q6
U 1 1 587C1AD8
P 10200 5200
F 0 "Q6" H 10400 5250 50  0000 L CNN
F 1 "Q_NPN_BEC" H 10400 5150 50  0000 L CNN
F 2 "TO_SOT_Packages_SMD:SOT-23_Handsoldering" H 10400 5300 50  0001 C CNN
F 3 "" H 10200 5200 50  0000 C CNN
	1    10200 5200
	1    0    0    -1  
$EndComp
$Comp
L Q_Photo_NPN Q5
U 1 1 587C45E3
P 9200 1850
F 0 "Q5" H 9400 1900 50  0000 L CNN
F 1 "IN2" H 9400 1800 50  0000 L CNN
F 2 "LEDs:LED-3MM" H 9400 1950 50  0001 C CNN
F 3 "" H 9200 1850 50  0000 C CNN
	1    9200 1850
	1    0    0    -1  
$EndComp
$Comp
L Q_Photo_NPN Q3
U 1 1 587C477D
P 8350 1850
F 0 "Q3" H 8550 1900 50  0000 L CNN
F 1 "IN1" H 8550 1800 50  0000 L CNN
F 2 "LEDs:LED-3MM" H 8550 1950 50  0001 C CNN
F 3 "" H 8350 1850 50  0000 C CNN
	1    8350 1850
	1    0    0    -1  
$EndComp
$Comp
L LED LED?
U 1 1 588AAE26
P 7150 4600
F 0 "LED?" V 7188 4482 50  0000 R CNN
F 1 "OUT" V 7097 4482 50  0000 R CNN
F 2 "" H -550 650 50  0001 C CNN
F 3 "" H -550 650 50  0001 C CNN
	1    7150 4600
	0    -1   -1   0   
$EndComp
$Comp
L LED LED?
U 1 1 588AB45E
P 8200 4600
F 0 "LED?" V 8238 4482 50  0000 R CNN
F 1 "LEDA" V 8147 4482 50  0000 R CNN
F 2 "" H 500 650 50  0001 C CNN
F 3 "" H 500 650 50  0001 C CNN
	1    8200 4600
	0    -1   -1   0   
$EndComp
$Comp
L LED LED?
U 1 1 588AB501
P 9250 4600
F 0 "LED?" V 9288 4482 50  0000 R CNN
F 1 "LEDB" V 9197 4482 50  0000 R CNN
F 2 "" H 1550 650 50  0001 C CNN
F 3 "" H 1550 650 50  0001 C CNN
	1    9250 4600
	0    -1   -1   0   
$EndComp
$Comp
L LED LED?
U 1 1 588AB5AB
P 10300 4600
F 0 "LED?" V 10338 4482 50  0000 R CNN
F 1 "LEDC" V 10247 4482 50  0000 R CNN
F 2 "" H 2600 650 50  0001 C CNN
F 3 "" H 2600 650 50  0001 C CNN
	1    10300 4600
	0    -1   -1   0   
$EndComp
$EndSCHEMATC
