(export (version D)
  (design
    (source /home/william/Documents/projects/logic-lid/devices/and-gate/and-gate.sch)
    (date "Sun 15 Jan 2017 10:05:14 PM MST")
    (tool "Eeschema 4.0.5-e0-6337~52~ubuntu16.10.1")
    (sheet (number 1) (name /) (tstamps /)
      (title_block
        (title)
        (company)
        (rev)
        (date)
        (source and-gate.sch)
        (comment (number 1) (value ""))
        (comment (number 2) (value ""))
        (comment (number 3) (value ""))
        (comment (number 4) (value "")))))
  (components
    (comp (ref C1)
      (value 0.1uF)
      (footprint Capacitors_SMD:C_1206_HandSoldering)
      (libsource (lib device) (part C))
      (sheetpath (names /) (tstamps /))
      (tstamp 5844B374))
    (comp (ref R1)
      (value 1k)
      (footprint Resistors_SMD:R_1206_HandSoldering)
      (libsource (lib device) (part R))
      (sheetpath (names /) (tstamps /))
      (tstamp 5844B37D))
    (comp (ref R2)
      (value 20k)
      (footprint Resistors_SMD:R_1206_HandSoldering)
      (libsource (lib device) (part R))
      (sheetpath (names /) (tstamps /))
      (tstamp 5844B37E))
    (comp (ref R3)
      (value 20k)
      (footprint Resistors_SMD:R_1206_HandSoldering)
      (libsource (lib device) (part R))
      (sheetpath (names /) (tstamps /))
      (tstamp 5844B37F))
    (comp (ref R4)
      (value 20k)
      (footprint Resistors_SMD:R_1206_HandSoldering)
      (libsource (lib device) (part R))
      (sheetpath (names /) (tstamps /))
      (tstamp 5844B380))
    (comp (ref R5)
      (value 20k)
      (footprint Resistors_SMD:R_1206_HandSoldering)
      (libsource (lib device) (part R))
      (sheetpath (names /) (tstamps /))
      (tstamp 5844B381))
    (comp (ref D8)
      (value 1N4148)
      (footprint LID:SOD-123)
      (libsource (lib device) (part D))
      (sheetpath (names /) (tstamps /))
      (tstamp 5844B382))
    (comp (ref D7)
      (value 1N4148)
      (footprint LID:SOD-123)
      (libsource (lib device) (part D))
      (sheetpath (names /) (tstamps /))
      (tstamp 5844B383))
    (comp (ref D6)
      (value 1N4148)
      (footprint LID:SOD-123)
      (libsource (lib device) (part D))
      (sheetpath (names /) (tstamps /))
      (tstamp 5844B384))
    (comp (ref D5)
      (value 1N4148)
      (footprint LID:SOD-123)
      (libsource (lib device) (part D))
      (sheetpath (names /) (tstamps /))
      (tstamp 5844B385))
    (comp (ref N1)
      (value DEVICE_SOCKET)
      (footprint LID:LID_NODE_CONN)
      (libsource (lib LID) (part DEVICE_SOCKET))
      (sheetpath (names /) (tstamps /))
      (tstamp 5844B388))
    (comp (ref R8)
      (value 2k)
      (footprint Resistors_SMD:R_1206_HandSoldering)
      (libsource (lib device) (part R))
      (sheetpath (names /) (tstamps /))
      (tstamp 5844B38A))
    (comp (ref R11)
      (value 2k)
      (footprint Resistors_SMD:R_1206_HandSoldering)
      (libsource (lib device) (part R))
      (sheetpath (names /) (tstamps /))
      (tstamp 5844B38E))
    (comp (ref D9)
      (value OUT)
      (footprint LEDs:LED-5MM)
      (libsource (lib and-gate-rescue) (part LED-RESCUE-and-gate))
      (sheetpath (names /) (tstamps /))
      (tstamp 5844B395))
    (comp (ref R7)
      (value 100)
      (footprint Resistors_SMD:R_1206_HandSoldering)
      (libsource (lib device) (part R))
      (sheetpath (names /) (tstamps /))
      (tstamp 5844B397))
    (comp (ref D10)
      (value LED1)
      (footprint LEDs:LED_1206)
      (libsource (lib and-gate-rescue) (part LED-RESCUE-and-gate))
      (sheetpath (names /) (tstamps /))
      (tstamp 5844B39A))
    (comp (ref R10)
      (value 100)
      (footprint Resistors_SMD:R_1206_HandSoldering)
      (libsource (lib device) (part R))
      (sheetpath (names /) (tstamps /))
      (tstamp 5844B39C))
    (comp (ref D11)
      (value LED2)
      (footprint LEDs:LED_1206)
      (libsource (lib and-gate-rescue) (part LED-RESCUE-and-gate))
      (sheetpath (names /) (tstamps /))
      (tstamp 5844B39F))
    (comp (ref R14)
      (value 100)
      (footprint Resistors_SMD:R_1206_HandSoldering)
      (libsource (lib device) (part R))
      (sheetpath (names /) (tstamps /))
      (tstamp 5844B3A1))
    (comp (ref R6)
      (value 10k)
      (footprint Resistors_SMD:R_1206_HandSoldering)
      (libsource (lib device) (part R))
      (sheetpath (names /) (tstamps /))
      (tstamp 5844B3A4))
    (comp (ref R9)
      (value 10k)
      (footprint Resistors_SMD:R_1206_HandSoldering)
      (libsource (lib device) (part R))
      (sheetpath (names /) (tstamps /))
      (tstamp 5844B3A5))
    (comp (ref R12)
      (value 10k)
      (footprint Resistors_SMD:R_1206_HandSoldering)
      (libsource (lib device) (part R))
      (sheetpath (names /) (tstamps /))
      (tstamp 5844B3A6))
    (comp (ref D12)
      (value LED3)
      (footprint LEDs:LED_1206)
      (libsource (lib and-gate-rescue) (part LED-RESCUE-and-gate))
      (sheetpath (names /) (tstamps /))
      (tstamp 5844CD45))
    (comp (ref R15)
      (value 100)
      (footprint Resistors_SMD:R_1206_HandSoldering)
      (libsource (lib device) (part R))
      (sheetpath (names /) (tstamps /))
      (tstamp 5844CD51))
    (comp (ref R13)
      (value 10k)
      (footprint Resistors_SMD:R_1206_HandSoldering)
      (libsource (lib device) (part R))
      (sheetpath (names /) (tstamps /))
      (tstamp 5844CD69))
    (comp (ref U1)
      (value ATTINY261A)
      (footprint Housings_SOIC:SOIC-20W_7.5x12.8mm_Pitch1.27mm)
      (libsource (lib LID) (part ATTINY261A))
      (sheetpath (names /) (tstamps /))
      (tstamp 5844FB61))
    (comp (ref C2)
      (value 10uF)
      (footprint Capacitors_SMD:C_1206_HandSoldering)
      (libsource (lib device) (part C))
      (sheetpath (names /) (tstamps /))
      (tstamp 584555E6))
    (comp (ref D1)
      (value MBR0520LT1G)
      (footprint LID:SOD-123)
      (libsource (lib device) (part D_Schottky))
      (sheetpath (names /) (tstamps /))
      (tstamp 5845672A))
    (comp (ref D2)
      (value MBR0520LT1G)
      (footprint LID:SOD-123)
      (libsource (lib device) (part D_Schottky))
      (sheetpath (names /) (tstamps /))
      (tstamp 584567CE))
    (comp (ref D3)
      (value MBR0520LT1G)
      (footprint LID:SOD-123)
      (libsource (lib device) (part D_Schottky))
      (sheetpath (names /) (tstamps /))
      (tstamp 58456872))
    (comp (ref D4)
      (value MBR0520LT1G)
      (footprint LID:SOD-123)
      (libsource (lib device) (part D_Schottky))
      (sheetpath (names /) (tstamps /))
      (tstamp 58456908))
    (comp (ref U2)
      (value XC6210B)
      (footprint TO_SOT_Packages_SMD:SOT-23-5)
      (libsource (lib LID) (part XC6210B))
      (sheetpath (names /) (tstamps /))
      (tstamp 584578F0))
    (comp (ref S1)
      (value SPDT)
      (footprint LID:JS102011)
      (libsource (lib LID) (part SPDT))
      (sheetpath (names /) (tstamps /))
      (tstamp 587BFF68))
    (comp (ref Q1)
      (value Q_NPN_BEC)
      (footprint TO_SOT_Packages_SMD:SOT-23_Handsoldering)
      (libsource (lib device) (part Q_NPN_BEC))
      (sheetpath (names /) (tstamps /))
      (tstamp 587C16F2))
    (comp (ref Q3)
      (value Q_NPN_BEC)
      (footprint TO_SOT_Packages_SMD:SOT-23_Handsoldering)
      (libsource (lib device) (part Q_NPN_BEC))
      (sheetpath (names /) (tstamps /))
      (tstamp 587C1979))
    (comp (ref Q5)
      (value Q_NPN_BEC)
      (footprint TO_SOT_Packages_SMD:SOT-23_Handsoldering)
      (libsource (lib device) (part Q_NPN_BEC))
      (sheetpath (names /) (tstamps /))
      (tstamp 587C1A22))
    (comp (ref Q6)
      (value Q_NPN_BEC)
      (footprint TO_SOT_Packages_SMD:SOT-23_Handsoldering)
      (libsource (lib device) (part Q_NPN_BEC))
      (sheetpath (names /) (tstamps /))
      (tstamp 587C1AD8))
    (comp (ref Q4)
      (value Q_Photo_NPN)
      (footprint LEDs:LED-3MM)
      (libsource (lib device) (part Q_Photo_NPN))
      (sheetpath (names /) (tstamps /))
      (tstamp 587C45E3))
    (comp (ref Q2)
      (value Q_Photo_NPN)
      (footprint LEDs:LED-3MM)
      (libsource (lib device) (part Q_Photo_NPN))
      (sheetpath (names /) (tstamps /))
      (tstamp 587C477D)))
  (libparts
    (libpart (lib LID) (part ATTINY261A)
      (fields
        (field (name Reference) U)
        (field (name Value) ATTINY261A))
      (pins
        (pin (num 1) (name PB0) (type input))
        (pin (num 2) (name PB1) (type input))
        (pin (num 3) (name PB2) (type input))
        (pin (num 4) (name PB3) (type input))
        (pin (num 5) (name VCC) (type input))
        (pin (num 6) (name GND) (type input))
        (pin (num 7) (name PB4) (type input))
        (pin (num 8) (name PB5) (type input))
        (pin (num 9) (name PB6) (type input))
        (pin (num 10) (name PB7) (type input))
        (pin (num 11) (name PA7) (type input))
        (pin (num 12) (name PA6) (type input))
        (pin (num 13) (name PA5) (type input))
        (pin (num 14) (name PA4) (type input))
        (pin (num 15) (name AVCC) (type input))
        (pin (num 16) (name AGND) (type input))
        (pin (num 17) (name PA3) (type input))
        (pin (num 18) (name PA2) (type input))
        (pin (num 19) (name PA1) (type input))
        (pin (num 20) (name PA0) (type input))))
    (libpart (lib device) (part C)
      (description "Unpolarized capacitor")
      (footprints
        (fp C?)
        (fp C_????_*)
        (fp C_????)
        (fp SMD*_c)
        (fp Capacitor*))
      (fields
        (field (name Reference) C)
        (field (name Value) C))
      (pins
        (pin (num 1) (name ~) (type passive))
        (pin (num 2) (name ~) (type passive))))
    (libpart (lib device) (part D)
      (description Diode)
      (footprints
        (fp Diode_*)
        (fp D-*)
        (fp *SingleDiode)
        (fp *_Diode_*)
        (fp *SingleDiode*)
        (fp D_*))
      (fields
        (field (name Reference) D)
        (field (name Value) D))
      (pins
        (pin (num 1) (name K) (type passive))
        (pin (num 2) (name A) (type passive))))
    (libpart (lib LID) (part DEVICE_SOCKET)
      (fields
        (field (name Reference) N)
        (field (name Value) DEVICE_SOCKET))
      (pins
        (pin (num 1) (name RA) (type input))
        (pin (num 2) (name CLK) (type input))
        (pin (num 3) (name RB) (type input))
        (pin (num 4) (name RESET) (type input))
        (pin (num 5) (name GND) (type input))
        (pin (num 6) (name MISO) (type input))
        (pin (num 7) (name RC) (type input))
        (pin (num 8) (name DATA) (type input))
        (pin (num 9) (name RD) (type input))))
    (libpart (lib device) (part D_Schottky)
      (description "Schottky diode")
      (footprints
        (fp Diode_*)
        (fp D-*)
        (fp *SingleDiode)
        (fp *_Diode_*)
        (fp *SingleDiode*)
        (fp D_*))
      (fields
        (field (name Reference) D)
        (field (name Value) D_Schottky))
      (pins
        (pin (num 1) (name K) (type passive))
        (pin (num 2) (name A) (type passive))))
    (libpart (lib and-gate-rescue) (part LED-RESCUE-and-gate)
      (footprints
        (fp LED-*)
        (fp LED_*))
      (fields
        (field (name Reference) D)
        (field (name Value) LED-RESCUE-and-gate))
      (pins
        (pin (num 1) (name K) (type passive))
        (pin (num 2) (name A) (type passive))))
    (libpart (lib device) (part Q_NPN_BEC)
      (description "Transistor NPN (general)")
      (fields
        (field (name Reference) Q)
        (field (name Value) Q_NPN_BEC))
      (pins
        (pin (num 1) (name B) (type input))
        (pin (num 2) (name E) (type passive))
        (pin (num 3) (name C) (type passive))))
    (libpart (lib device) (part Q_Photo_NPN)
      (aliases
        (alias Q_Photo_NPN_CE))
      (description "Phototransistor NPN, 2-pin (C=1, E=2)")
      (fields
        (field (name Reference) Q)
        (field (name Value) Q_Photo_NPN))
      (pins
        (pin (num 1) (name C) (type passive))
        (pin (num 2) (name E) (type passive))))
    (libpart (lib device) (part R)
      (description Resistor)
      (footprints
        (fp R_*)
        (fp Resistor_*))
      (fields
        (field (name Reference) R)
        (field (name Value) R))
      (pins
        (pin (num 1) (name ~) (type passive))
        (pin (num 2) (name ~) (type passive))))
    (libpart (lib LID) (part SPDT)
      (fields
        (field (name Reference) S)
        (field (name Value) SPDT))
      (pins
        (pin (num 1) (name ~) (type input))
        (pin (num 2) (name ~) (type input))
        (pin (num 3) (name ~) (type input))))
    (libpart (lib LID) (part XC6210B)
      (fields
        (field (name Reference) U)
        (field (name Value) XC6210B))
      (pins
        (pin (num 1) (name Vin) (type input))
        (pin (num 2) (name Vss) (type input))
        (pin (num 3) (name CE) (type input))
        (pin (num 5) (name Vout) (type input)))))
  (libraries
    (library (logical and-gate-rescue)
      (uri /home/william/Documents/projects/logic-lid/devices/and-gate/and-gate-rescue.lib))
    (library (logical device)
      (uri /usr/share/kicad/library/device.lib))
    (library (logical LID)
      (uri /home/william/Documents/projects/logic-lid/kicad-lib/LID.lib)))
  (nets
    (net (code 1) (name "Net-(D11-Pad1)")
      (node (ref D11) (pin 1))
      (node (ref Q5) (pin 3)))
    (net (code 2) (name GND)
      (node (ref U1) (pin 6))
      (node (ref R11) (pin 2))
      (node (ref N1) (pin 5))
      (node (ref Q1) (pin 2))
      (node (ref Q3) (pin 2))
      (node (ref U1) (pin 16))
      (node (ref Q5) (pin 2))
      (node (ref Q6) (pin 2))
      (node (ref U2) (pin 2))
      (node (ref C2) (pin 2))
      (node (ref C1) (pin 2))
      (node (ref R8) (pin 2)))
    (net (code 3) (name "Net-(D11-Pad2)")
      (node (ref R14) (pin 2))
      (node (ref D11) (pin 2)))
    (net (code 4) (name VPP)
      (node (ref R14) (pin 1))
      (node (ref R7) (pin 1))
      (node (ref D2) (pin 1))
      (node (ref D3) (pin 1))
      (node (ref U2) (pin 3))
      (node (ref U2) (pin 1))
      (node (ref D4) (pin 1))
      (node (ref C1) (pin 1))
      (node (ref R15) (pin 1))
      (node (ref D1) (pin 1))
      (node (ref R10) (pin 1)))
    (net (code 5) (name "Net-(D10-Pad1)")
      (node (ref Q3) (pin 3))
      (node (ref D10) (pin 1)))
    (net (code 6) (name "Net-(D10-Pad2)")
      (node (ref D10) (pin 2))
      (node (ref R10) (pin 2)))
    (net (code 7) (name "Net-(Q5-Pad1)")
      (node (ref Q5) (pin 1))
      (node (ref R12) (pin 1)))
    (net (code 8) (name OUT3)
      (node (ref R12) (pin 2))
      (node (ref U1) (pin 8)))
    (net (code 9) (name OUT2)
      (node (ref U1) (pin 7))
      (node (ref R9) (pin 2)))
    (net (code 10) (name OUT1)
      (node (ref R6) (pin 2))
      (node (ref U1) (pin 4)))
    (net (code 11) (name "Net-(Q3-Pad1)")
      (node (ref Q3) (pin 1))
      (node (ref R9) (pin 1)))
    (net (code 12) (name "Net-(Q1-Pad1)")
      (node (ref Q1) (pin 1))
      (node (ref R6) (pin 1)))
    (net (code 13) (name IN1)
      (node (ref Q2) (pin 2))
      (node (ref R8) (pin 1))
      (node (ref U1) (pin 9)))
    (net (code 14) (name IN2)
      (node (ref U1) (pin 11))
      (node (ref R11) (pin 1))
      (node (ref Q4) (pin 2)))
    (net (code 15) (name +3V3)
      (node (ref D5) (pin 1))
      (node (ref D6) (pin 1))
      (node (ref D7) (pin 1))
      (node (ref D8) (pin 1))
      (node (ref Q4) (pin 1))
      (node (ref Q2) (pin 1))
      (node (ref U2) (pin 5))
      (node (ref C2) (pin 1))
      (node (ref U1) (pin 15))
      (node (ref R1) (pin 1))
      (node (ref U1) (pin 5)))
    (net (code 16) (name "Net-(D9-Pad1)")
      (node (ref Q1) (pin 3))
      (node (ref D9) (pin 1)))
    (net (code 17) (name "Net-(D9-Pad2)")
      (node (ref R7) (pin 2))
      (node (ref D9) (pin 2)))
    (net (code 18) (name OUT4)
      (node (ref R13) (pin 2))
      (node (ref U1) (pin 19)))
    (net (code 19) (name RC)
      (node (ref N1) (pin 7))
      (node (ref D3) (pin 2))
      (node (ref R4) (pin 1)))
    (net (code 20) (name RB)
      (node (ref R3) (pin 1))
      (node (ref D2) (pin 2))
      (node (ref N1) (pin 3)))
    (net (code 21) (name RA)
      (node (ref R2) (pin 1))
      (node (ref N1) (pin 1))
      (node (ref D1) (pin 2)))
    (net (code 22) (name "Net-(D12-Pad1)")
      (node (ref D12) (pin 1))
      (node (ref Q6) (pin 3)))
    (net (code 23) (name "Net-(N1-Pad4)")
      (node (ref N1) (pin 4))
      (node (ref S1) (pin 3)))
    (net (code 24) (name RESET)
      (node (ref R1) (pin 2))
      (node (ref U1) (pin 10))
      (node (ref S1) (pin 2)))
    (net (code 25) (name "Net-(S1-Pad1)")
      (node (ref S1) (pin 1)))
    (net (code 26) (name "Net-(Q6-Pad1)")
      (node (ref Q6) (pin 1))
      (node (ref R13) (pin 1)))
    (net (code 27) (name "Net-(D12-Pad2)")
      (node (ref D12) (pin 2))
      (node (ref R15) (pin 2)))
    (net (code 28) (name SCL1)
      (node (ref U1) (pin 18))
      (node (ref U1) (pin 1))
      (node (ref N1) (pin 8)))
    (net (code 29) (name MISO)
      (node (ref N1) (pin 6))
      (node (ref U1) (pin 2)))
    (net (code 30) (name "Net-(D8-Pad2)")
      (node (ref D8) (pin 2))
      (node (ref R5) (pin 2))
      (node (ref U1) (pin 12)))
    (net (code 31) (name "Net-(D7-Pad2)")
      (node (ref U1) (pin 13))
      (node (ref D7) (pin 2))
      (node (ref R4) (pin 2)))
    (net (code 32) (name "Net-(D6-Pad2)")
      (node (ref D6) (pin 2))
      (node (ref U1) (pin 14))
      (node (ref R3) (pin 2)))
    (net (code 33) (name RD)
      (node (ref D4) (pin 2))
      (node (ref N1) (pin 9))
      (node (ref R5) (pin 1)))
    (net (code 34) (name SCL0/SCK)
      (node (ref U1) (pin 20))
      (node (ref U1) (pin 3))
      (node (ref N1) (pin 2)))
    (net (code 35) (name "Net-(D5-Pad2)")
      (node (ref U1) (pin 17))
      (node (ref R2) (pin 2))
      (node (ref D5) (pin 2)))))