(module LED_3.0mm_Horizontal (layer F.Cu) (tedit 588D2EEB)
  (descr "LED, diameter 3.0mm, 2 pins")
  (tags "LED diameter 3.0mm 2 pins")
  (fp_text reference Q2 (at -2.54 0 90) (layer F.SilkS)
    (effects (font (size 1 1) (thickness 0.15)))
  )
  (fp_text value "SFH 3310" (at 1.27 7.63) (layer F.Fab)
    (effects (font (size 1 1) (thickness 0.15)))
  )
  (fp_line (start 3.75 -1.25) (end -1.25 -1.25) (layer F.CrtYd) (width 0.05))
  (fp_line (start 3.75 6.9) (end 3.75 -1.25) (layer F.CrtYd) (width 0.05))
  (fp_line (start -1.25 6.9) (end 3.75 6.9) (layer F.CrtYd) (width 0.05))
  (fp_line (start -1.25 -1.25) (end -1.25 6.9) (layer F.CrtYd) (width 0.05))
  (fp_line (start 2.54 0) (end 2.54 0) (layer F.Fab) (width 0.1))
  (fp_line (start 2.54 1.27) (end 2.54 0) (layer F.Fab) (width 0.1))
  (fp_line (start 2.54 1.27) (end 2.54 1.27) (layer F.Fab) (width 0.1))
  (fp_line (start 2.54 0) (end 2.54 1.27) (layer F.Fab) (width 0.1))
  (fp_line (start 0 0) (end 0 0) (layer F.Fab) (width 0.1))
  (fp_line (start 0 1.27) (end 0 0) (layer F.Fab) (width 0.1))
  (fp_line (start 0 1.27) (end 0 1.27) (layer F.Fab) (width 0.1))
  (fp_line (start 0 0) (end 0 1.27) (layer F.Fab) (width 0.1))
  (fp_line (start 2.77 1.27) (end 3.17 1.27) (layer F.Fab) (width 0.1))
  (fp_line (start 2.77 2.27) (end 2.77 1.27) (layer F.Fab) (width 0.1))
  (fp_line (start 3.17 2.27) (end 2.77 2.27) (layer F.Fab) (width 0.1))
  (fp_line (start 3.17 1.27) (end 3.17 2.27) (layer F.Fab) (width 0.1))
  (fp_line (start -0.23 1.27) (end 2.77 1.27) (layer F.Fab) (width 0.1))
  (fp_line (start 2.77 1.27) (end 2.77 5.07) (layer F.Fab) (width 0.1))
  (fp_line (start -0.23 1.27) (end -0.23 5.07) (layer F.Fab) (width 0.1))
  (fp_arc (start 1.27 5.07) (end -0.23 5.07) (angle -180) (layer F.Fab) (width 0.1))
  (pad 2 thru_hole circle (at 2.54 0) (size 1.8 1.8) (drill 0.9) (layers *.Cu *.Mask))
  (pad 1 thru_hole rect (at 0 0) (size 1.8 1.8) (drill 0.9) (layers *.Cu *.Mask))
  (model LEDs.3dshapes/LED_D3.0mm_Horicontal_O1.27mm.wrl
    (at (xyz 0 0 0))
    (scale (xyz 0.393701 0.393701 0.393701))
    (rotate (xyz 0 0 0))
  )
)
