(module LID_SOLDER_JUMPER (layer F.Cu) (tedit 57DB74B7)
  (fp_text reference REF** (at 0.508 -2.032 180) (layer F.SilkS)
    (effects (font (size 1 1) (thickness 0.15)))
  )
  (fp_text value LID_SOLDER_JUMPER (at 0 2.032) (layer F.Fab)
    (effects (font (size 1 1) (thickness 0.15)))
  )
  (fp_line (start -1.524 -1.016) (end -1.524 1.016) (layer F.SilkS) (width 0.15))
  (fp_line (start -1.524 1.016) (end 1.524 1.016) (layer F.SilkS) (width 0.15))
  (fp_line (start 1.524 1.016) (end 1.524 -1.016) (layer F.SilkS) (width 0.15))
  (fp_line (start 1.524 -1.016) (end -1.524 -1.016) (layer F.SilkS) (width 0.15))
  (pad 2 smd rect (at 0.635 0) (size 1 1.2) (layers F.Cu F.Paste F.Mask))
  (pad 1 smd rect (at -0.635 0) (size 1 1.2) (layers F.Cu F.Paste F.Mask))
)
