EESchema Schematic File Version 2
LIBS:power
LIBS:device
LIBS:transistors
LIBS:conn
LIBS:linear
LIBS:regul
LIBS:74xx
LIBS:cmos4000
LIBS:adc-dac
LIBS:memory
LIBS:xilinx
LIBS:microcontrollers
LIBS:dsp
LIBS:microchip
LIBS:analog_switches
LIBS:motorola
LIBS:texas
LIBS:intel
LIBS:audio
LIBS:interface
LIBS:digital-audio
LIBS:philips
LIBS:display
LIBS:cypress
LIBS:siliconi
LIBS:opto
LIBS:contrib
LIBS:valves
LIBS:LID
EELAYER 26 0
EELAYER END
$Descr USLetter 11000 8500
encoding utf-8
Sheet 1 1
Title "LID Terminal"
Date "2017-05-03"
Rev "1"
Comp ""
Comment1 ""
Comment2 ""
Comment3 ""
Comment4 ""
$EndDescr
$Comp
L VPP #PWR01
U 1 1 57D24F1E
P 5000 1700
F 0 "#PWR01" H 5000 1550 50  0001 C CNN
F 1 "VPP" H 5000 1850 50  0000 C CNN
F 2 "" H 5000 1700 50  0000 C CNN
F 3 "" H 5000 1700 50  0000 C CNN
	1    5000 1700
	1    0    0    -1  
$EndComp
$Comp
L GND #PWR02
U 1 1 57D24F36
P 3400 5850
F 0 "#PWR02" H 3400 5600 50  0001 C CNN
F 1 "GND" H 3400 5700 50  0000 C CNN
F 2 "" H 3400 5850 50  0000 C CNN
F 3 "" H 3400 5850 50  0000 C CNN
	1    3400 5850
	1    0    0    -1  
$EndComp
$Comp
L R R3
U 1 1 57D28368
P 5600 5350
F 0 "R3" V 5680 5350 50  0000 C CNN
F 1 "10k" V 5600 5350 50  0000 C CNN
F 2 "Resistors_THT:R_Axial_DIN0204_L3.6mm_D1.6mm_P5.08mm_Horizontal" V 5530 5350 50  0001 C CNN
F 3 "http://www.mouser.com/ds/2/351/Xicon_09142016_291_293_299_CF-RC_series-1002354.pdf" H 5600 5350 50  0001 C CNN
F 4 "http://www.mouser.com/ProductDetail/Xicon/299-10K-RC/?qs=sGAEpiMZZMtlubZbdhIBII%252bhhPYu75Hok40rFUWzE6Y%3d" V 5600 5350 60  0001 C CNN "Order Link"
	1    5600 5350
	1    0    0    -1  
$EndComp
$Comp
L NODE_SOCKET N1
U 1 1 57D4CD92
P 8200 3350
F 0 "N1" H 8500 2900 60  0000 R CNN
F 1 "NODE_SOCKET" H 8200 3700 60  0000 C CNN
F 2 "LID:LID_NODE_CONN" H 8200 3700 60  0001 C CNN
F 3 "http://www.mouser.com/ds/2/1/TS2187-335945.pdf" H 8200 3700 60  0001 C CNN
F 4 "http://www.mouser.com/ProductDetail/3M-Electronic-Solutions-Division/960103-6202-AR/?qs=sGAEpiMZZMs%252bGHln7q6pm53vbKor1bMJy7j%2fhOA1OFE%3d" H 8200 3350 60  0001 C CNN "Order Link"
	1    8200 3350
	-1   0    0    -1  
$EndComp
$Comp
L MC74HC165A U2
U 1 1 57D4F169
P 4050 4200
F 0 "U2" H 3800 5000 60  0000 C CNN
F 1 "SN74HC165" H 4050 3500 60  0000 C CNN
F 2 "Housings_DIP:DIP-16_W7.62mm" H 3800 5000 60  0001 C CNN
F 3 "http://www.ti.com/lit/ds/symlink/sn74hc165.pdf" H 3800 5000 60  0001 C CNN
F 4 "http://www.mouser.com/ProductDetail/Texas-Instruments/SN74HC165N/?qs=sGAEpiMZZMtsbn1GaJyslzfkh1h1g%2fFQYk79SPpYIQE%3d" H 4050 4200 60  0001 C CNN "Order Link"
	1    4050 4200
	1    0    0    -1  
$EndComp
$Comp
L R R5
U 1 1 57D4FF6A
P 6500 5350
F 0 "R5" V 6580 5350 50  0000 C CNN
F 1 "10k" V 6500 5350 50  0000 C CNN
F 2 "Resistors_THT:R_Axial_DIN0204_L3.6mm_D1.6mm_P5.08mm_Horizontal" V 6430 5350 50  0001 C CNN
F 3 "http://www.mouser.com/ds/2/351/Xicon_09142016_291_293_299_CF-RC_series-1002354.pdf" H 6500 5350 50  0001 C CNN
F 4 "http://www.mouser.com/ProductDetail/Xicon/299-10K-RC/?qs=sGAEpiMZZMtlubZbdhIBII%252bhhPYu75Hok40rFUWzE6Y%3d" V 6500 5350 60  0001 C CNN "Order Link"
	1    6500 5350
	1    0    0    -1  
$EndComp
$Comp
L R R2
U 1 1 57D4FFD8
P 5200 4100
F 0 "R2" V 5280 4100 50  0000 C CNN
F 1 "10k" V 5200 4100 50  0000 C CNN
F 2 "Resistors_THT:R_Axial_DIN0204_L3.6mm_D1.6mm_P5.08mm_Horizontal" V 5130 4100 50  0001 C CNN
F 3 "http://www.mouser.com/ds/2/351/Xicon_09142016_291_293_299_CF-RC_series-1002354.pdf" H 5200 4100 50  0001 C CNN
F 4 "http://www.mouser.com/ProductDetail/Xicon/299-10K-RC/?qs=sGAEpiMZZMtlubZbdhIBII%252bhhPYu75Hok40rFUWzE6Y%3d" V 5200 4100 60  0001 C CNN "Order Link"
	1    5200 4100
	1    0    0    -1  
$EndComp
$Comp
L BUS_CONN BUS2
U 1 1 57D5407B
P 10100 3200
F 0 "BUS2" H 9950 2850 60  0000 L BNN
F 1 "BUS_CONN" H 10200 3500 60  0000 C CNN
F 2 "LID:LID_NODE_INTERCONN" H 9950 2850 60  0001 C CNN
F 3 "" H 9950 2850 60  0001 C CNN
	1    10100 3200
	1    0    0    -1  
$EndComp
$Comp
L VPP #PWR03
U 1 1 57D540E2
P 9600 2900
F 0 "#PWR03" H 9600 2750 50  0001 C CNN
F 1 "VPP" H 9600 3050 50  0000 C CNN
F 2 "" H 9600 2900 50  0000 C CNN
F 3 "" H 9600 2900 50  0000 C CNN
	1    9600 2900
	1    0    0    -1  
$EndComp
$Comp
L GND #PWR04
U 1 1 57D54298
P 9600 3500
F 0 "#PWR04" H 9600 3250 50  0001 C CNN
F 1 "GND" H 9600 3350 50  0000 C CNN
F 2 "" H 9600 3500 50  0000 C CNN
F 3 "" H 9600 3500 50  0000 C CNN
	1    9600 3500
	1    0    0    -1  
$EndComp
$Comp
L BUS_CONN BUS1
U 1 1 57D56652
P 10100 1900
F 0 "BUS1" H 9950 1550 60  0000 L BNN
F 1 "BUS_CONN" H 10200 2200 60  0000 C CNN
F 2 "LID:LID_NODE_INTERCONN" H 9950 1550 60  0001 C CNN
F 3 "" H 9950 1550 60  0001 C CNN
	1    10100 1900
	1    0    0    -1  
$EndComp
$Comp
L VPP #PWR05
U 1 1 57D56658
P 9600 1600
F 0 "#PWR05" H 9600 1450 50  0001 C CNN
F 1 "VPP" H 9600 1750 50  0000 C CNN
F 2 "" H 9600 1600 50  0000 C CNN
F 3 "" H 9600 1600 50  0000 C CNN
	1    9600 1600
	1    0    0    -1  
$EndComp
$Comp
L GND #PWR06
U 1 1 57D5665E
P 9600 2200
F 0 "#PWR06" H 9600 1950 50  0001 C CNN
F 1 "GND" H 9600 2050 50  0000 C CNN
F 2 "" H 9600 2200 50  0000 C CNN
F 3 "" H 9600 2200 50  0000 C CNN
	1    9600 2200
	1    0    0    -1  
$EndComp
$Comp
L D D3
U 1 1 580017C2
P 4600 1900
F 0 "D3" H 4600 2000 50  0000 C CNN
F 1 "1N4148" H 4600 1800 50  0000 C CNN
F 2 "Diodes_THT:D_DO-35_SOD27_P7.62mm_Horizontal" H 4600 1900 50  0001 C CNN
F 3 "http://www.mouser.com/ds/2/149/1N4148-888354.pdf" H 4600 1900 50  0001 C CNN
F 4 "http://www.mouser.com/ProductDetail/Fairchild-Semiconductor/1N4148/?qs=sGAEpiMZZMtoHjESLttvkoBU6cp6%252bZs9oaGbBohzXiI%3d" H 4600 1900 60  0001 C CNN "Order Link"
	1    4600 1900
	1    0    0    -1  
$EndComp
$Comp
L D D2
U 1 1 580018EF
P 4200 1900
F 0 "D2" H 4200 2000 50  0000 C CNN
F 1 "1N4148" H 4200 1800 50  0000 C CNN
F 2 "Diodes_THT:D_DO-35_SOD27_P7.62mm_Horizontal" H 4200 1900 50  0001 C CNN
F 3 "http://www.mouser.com/ds/2/149/1N4148-888354.pdf" H 4200 1900 50  0001 C CNN
F 4 "http://www.mouser.com/ProductDetail/Fairchild-Semiconductor/1N4148/?qs=sGAEpiMZZMtoHjESLttvkoBU6cp6%252bZs9oaGbBohzXiI%3d" H 4200 1900 60  0001 C CNN "Order Link"
	1    4200 1900
	1    0    0    -1  
$EndComp
$Comp
L D D1
U 1 1 58001992
P 3800 1900
F 0 "D1" H 3800 2000 50  0000 C CNN
F 1 "1N4148" H 3800 1800 50  0000 C CNN
F 2 "Diodes_THT:D_DO-35_SOD27_P7.62mm_Horizontal" H 3800 1900 50  0001 C CNN
F 3 "http://www.mouser.com/ds/2/149/1N4148-888354.pdf" H 3800 1900 50  0001 C CNN
F 4 "http://www.mouser.com/ProductDetail/Fairchild-Semiconductor/1N4148/?qs=sGAEpiMZZMtoHjESLttvkoBU6cp6%252bZs9oaGbBohzXiI%3d" H 3800 1900 60  0001 C CNN "Order Link"
	1    3800 1900
	1    0    0    -1  
$EndComp
$Comp
L GND #PWR07
U 1 1 580043B9
P 4400 3150
F 0 "#PWR07" H 4400 2900 50  0001 C CNN
F 1 "GND" H 4400 3000 50  0000 C CNN
F 2 "" H 4400 3150 50  0000 C CNN
F 3 "" H 4400 3150 50  0000 C CNN
	1    4400 3150
	1    0    0    -1  
$EndComp
$Comp
L VPP #PWR08
U 1 1 5805EBE7
P 5200 2950
F 0 "#PWR08" H 5200 2800 50  0001 C CNN
F 1 "VPP" H 5200 3100 50  0000 C CNN
F 2 "" H 5200 2950 50  0000 C CNN
F 3 "" H 5200 2950 50  0000 C CNN
	1    5200 2950
	1    0    0    -1  
$EndComp
$Comp
L GND #PWR09
U 1 1 58100431
P 8200 3950
F 0 "#PWR09" H 8200 3700 50  0001 C CNN
F 1 "GND" H 8200 3800 50  0000 C CNN
F 2 "" H 8200 3950 50  0000 C CNN
F 3 "" H 8200 3950 50  0000 C CNN
	1    8200 3950
	1    0    0    -1  
$EndComp
$Comp
L Q_NPN_EBC Q1
U 1 1 58100B21
P 5300 4850
F 0 "Q1" H 5600 4900 50  0000 R CNN
F 1 "2N3904" H 5750 4750 50  0000 R CNN
F 2 "TO_SOT_Packages_THT:TO-92_Inline_Narrow_Oval" H 5500 4950 50  0001 C CNN
F 3 "http://www.mouser.com/ds/2/149/2N3904-888417.pdf" H 5300 4850 50  0001 C CNN
F 4 "http://www.mouser.com/ProductDetail/Fairchild-Semiconductor/2N3904BU/?qs=sGAEpiMZZMshyDBzk1%2fWi4G1GLBZKHK10QNLT596yR0%3d" H 5300 4850 60  0001 C CNN "Order Link"
	1    5300 4850
	-1   0    0    -1  
$EndComp
$Comp
L Q_NPN_EBC Q2
U 1 1 58101112
P 6200 4850
F 0 "Q2" H 6500 4900 50  0000 R CNN
F 1 "2N3904" H 6650 4750 50  0000 R CNN
F 2 "TO_SOT_Packages_THT:TO-92_Inline_Narrow_Oval" H 6400 4950 50  0001 C CNN
F 3 "http://www.mouser.com/ds/2/149/2N3904-888417.pdf" H 6200 4850 50  0001 C CNN
F 4 "http://www.mouser.com/ProductDetail/Fairchild-Semiconductor/2N3904BU/?qs=sGAEpiMZZMshyDBzk1%2fWi4G1GLBZKHK10QNLT596yR0%3d" H 6200 4850 60  0001 C CNN "Order Link"
	1    6200 4850
	-1   0    0    -1  
$EndComp
$Comp
L R R4
U 1 1 581029CD
P 6100 4100
F 0 "R4" V 6180 4100 50  0000 C CNN
F 1 "10k" V 6100 4100 50  0000 C CNN
F 2 "Resistors_THT:R_Axial_DIN0204_L3.6mm_D1.6mm_P5.08mm_Horizontal" V 6030 4100 50  0001 C CNN
F 3 "http://www.mouser.com/ds/2/351/Xicon_09142016_291_293_299_CF-RC_series-1002354.pdf" H 6100 4100 50  0001 C CNN
F 4 "http://www.mouser.com/ProductDetail/Xicon/299-10K-RC/?qs=sGAEpiMZZMtlubZbdhIBII%252bhhPYu75Hok40rFUWzE6Y%3d" V 6100 4100 60  0001 C CNN "Order Link"
	1    6100 4100
	1    0    0    -1  
$EndComp
$Comp
L R R6
U 1 1 58103A5D
P 7050 4100
F 0 "R6" V 7130 4100 50  0000 C CNN
F 1 "10k" V 7050 4100 50  0000 C CNN
F 2 "Resistors_THT:R_Axial_DIN0204_L3.6mm_D1.6mm_P5.08mm_Horizontal" V 6980 4100 50  0001 C CNN
F 3 "http://www.mouser.com/ds/2/351/Xicon_09142016_291_293_299_CF-RC_series-1002354.pdf" H 7050 4100 50  0001 C CNN
F 4 "http://www.mouser.com/ProductDetail/Xicon/299-10K-RC/?qs=sGAEpiMZZMtlubZbdhIBII%252bhhPYu75Hok40rFUWzE6Y%3d" V 7050 4100 60  0001 C CNN "Order Link"
	1    7050 4100
	1    0    0    -1  
$EndComp
$Comp
L VPP #PWR010
U 1 1 5883BCB5
P 850 1100
F 0 "#PWR010" H 850 950 50  0001 C CNN
F 1 "VPP" H 850 1250 50  0000 C CNN
F 2 "" H 850 1100 50  0000 C CNN
F 3 "" H 850 1100 50  0000 C CNN
	1    850  1100
	1    0    0    -1  
$EndComp
$Comp
L GND #PWR011
U 1 1 5883C650
P 1800 2650
F 0 "#PWR011" H 1800 2400 50  0001 C CNN
F 1 "GND" H 1800 2500 50  0000 C CNN
F 2 "" H 1800 2650 50  0000 C CNN
F 3 "" H 1800 2650 50  0000 C CNN
	1    1800 2650
	1    0    0    -1  
$EndComp
$Comp
L C C1
U 1 1 5883CD33
P 1000 1950
F 0 "C1" H 1025 2050 50  0000 L CNN
F 1 "10uF" H 1025 1850 50  0000 L CNN
F 2 "Capacitors_THT:CP_Radial_D5.0mm_P2.00mm" H 1038 1800 50  0001 C CNN
F 3 "http://www.mouser.com/ds/2/231/lelon_REA[1]-341020.pdf" H 1000 1950 50  0001 C CNN
F 4 "http://www.mouser.com/ProductDetail/Lelon/REA100M1HBK-0511P/?qs=sGAEpiMZZMvwFf0viD3Y3fqH3L9WtgZD%252boHqgeGyiqk%3d" H 1000 1950 60  0001 C CNN "Order Link"
	1    1000 1950
	1    0    0    -1  
$EndComp
$Comp
L C C2
U 1 1 5883CF8C
P 2600 1950
F 0 "C2" H 2625 2050 50  0000 L CNN
F 1 "0.1uF" H 2625 1850 50  0000 L CNN
F 2 "Capacitors_THT:C_Disc_D3.8mm_W2.6mm_P2.50mm" H 2638 1800 50  0001 C CNN
F 3 "http://www.mouser.com/ds/2/427/mkseries-205465.pdf" H 2600 1950 50  0001 C CNN
F 4 "http://www.mouser.com/ProductDetail/Vishay-BC-Components/K104K15X7RF53L2/?qs=sGAEpiMZZMt3KoXD5rJ2N0gbWXNUnftXnrj%252bHeSTjwA%3d" H 2600 1950 60  0001 C CNN "Order Link"
	1    2600 1950
	1    0    0    -1  
$EndComp
Text Notes 700  800  0    60   Italic 0
OPTIONAL
NoConn ~ 4550 3900
$Comp
L R R1
U 1 1 58849372
P 3000 2250
F 0 "R1" V 3080 2250 50  0000 C CNN
F 1 "BIAS" V 3000 2250 50  0000 C CNN
F 2 "Resistors_THT:R_Axial_DIN0204_L3.6mm_D1.6mm_P5.08mm_Horizontal" V 2930 2250 50  0001 C CNN
F 3 "" H 3000 2250 50  0000 C CNN
	1    3000 2250
	0    -1   -1   0   
$EndComp
$Comp
L JUMPER_3_WAY J1
U 1 1 5884AA08
P 1150 3750
F 0 "J1" H 1250 3550 60  0000 C CNN
F 1 "JUMPER_3_WAY" V 1000 3750 60  0001 C CNN
F 2 "LID:WIRE_JUMPER" H 1150 3750 60  0001 C CNN
F 3 "" H 1150 3750 60  0001 C CNN
	1    1150 3750
	1    0    0    -1  
$EndComp
Text GLabel 3450 3750 0    60   Input Italic 0
D0
Text GLabel 3250 3850 0    60   Input Italic 0
D1
Text GLabel 3450 3950 0    60   Input Italic 0
D2
Text GLabel 3250 4050 0    60   Input Italic 0
D3
Text GLabel 3450 4150 0    60   Input Italic 0
D4
Text GLabel 3250 4250 0    60   Input Italic 0
D5
Text GLabel 3450 4350 0    60   Input Italic 0
D6
Text GLabel 3250 4450 0    60   Input Italic 0
D7
$Comp
L GND #PWR012
U 1 1 5884BE15
P 1150 4050
F 0 "#PWR012" H 1150 3800 50  0001 C CNN
F 1 "GND" H 1150 3900 50  0000 C CNN
F 2 "" H 1150 4050 50  0000 C CNN
F 3 "" H 1150 4050 50  0000 C CNN
	1    1150 4050
	1    0    0    -1  
$EndComp
$Comp
L VPP #PWR013
U 1 1 5884C093
P 1150 3450
F 0 "#PWR013" H 1150 3300 50  0001 C CNN
F 1 "VPP" H 1150 3600 50  0000 C CNN
F 2 "" H 1150 3450 50  0000 C CNN
F 3 "" H 1150 3450 50  0000 C CNN
	1    1150 3450
	1    0    0    -1  
$EndComp
Text GLabel 1500 3500 1    60   Input Italic 0
D0
$Comp
L JUMPER_3_WAY J5
U 1 1 5884CCFC
P 1700 3750
F 0 "J5" H 1800 3550 60  0000 C CNN
F 1 "JUMPER_3_WAY" V 1550 3750 60  0001 C CNN
F 2 "LID:WIRE_JUMPER" H 1700 3750 60  0001 C CNN
F 3 "" H 1700 3750 60  0001 C CNN
	1    1700 3750
	1    0    0    -1  
$EndComp
$Comp
L GND #PWR014
U 1 1 5884CD02
P 1700 4050
F 0 "#PWR014" H 1700 3800 50  0001 C CNN
F 1 "GND" H 1700 3900 50  0000 C CNN
F 2 "" H 1700 4050 50  0000 C CNN
F 3 "" H 1700 4050 50  0000 C CNN
	1    1700 4050
	1    0    0    -1  
$EndComp
$Comp
L VPP #PWR015
U 1 1 5884CD08
P 1700 3450
F 0 "#PWR015" H 1700 3300 50  0001 C CNN
F 1 "VPP" H 1700 3600 50  0000 C CNN
F 2 "" H 1700 3450 50  0000 C CNN
F 3 "" H 1700 3450 50  0000 C CNN
	1    1700 3450
	1    0    0    -1  
$EndComp
Text GLabel 2050 3500 1    60   Input Italic 0
D1
$Comp
L JUMPER_3_WAY J2
U 1 1 5884D0A1
P 1150 4750
F 0 "J2" H 1250 4550 60  0000 C CNN
F 1 "JUMPER_3_WAY" V 1000 4750 60  0001 C CNN
F 2 "LID:WIRE_JUMPER" H 1150 4750 60  0001 C CNN
F 3 "" H 1150 4750 60  0001 C CNN
	1    1150 4750
	1    0    0    -1  
$EndComp
$Comp
L GND #PWR016
U 1 1 5884D0A7
P 1150 5050
F 0 "#PWR016" H 1150 4800 50  0001 C CNN
F 1 "GND" H 1150 4900 50  0000 C CNN
F 2 "" H 1150 5050 50  0000 C CNN
F 3 "" H 1150 5050 50  0000 C CNN
	1    1150 5050
	1    0    0    -1  
$EndComp
$Comp
L VPP #PWR017
U 1 1 5884D0AD
P 1150 4450
F 0 "#PWR017" H 1150 4300 50  0001 C CNN
F 1 "VPP" H 1150 4600 50  0000 C CNN
F 2 "" H 1150 4450 50  0000 C CNN
F 3 "" H 1150 4450 50  0000 C CNN
	1    1150 4450
	1    0    0    -1  
$EndComp
Text GLabel 1500 4500 1    60   Input Italic 0
D2
$Comp
L JUMPER_3_WAY J6
U 1 1 5884D0B6
P 1700 4750
F 0 "J6" H 1800 4550 60  0000 C CNN
F 1 "JUMPER_3_WAY" V 1550 4750 60  0001 C CNN
F 2 "LID:WIRE_JUMPER" H 1700 4750 60  0001 C CNN
F 3 "" H 1700 4750 60  0001 C CNN
	1    1700 4750
	1    0    0    -1  
$EndComp
$Comp
L GND #PWR018
U 1 1 5884D0BC
P 1700 5050
F 0 "#PWR018" H 1700 4800 50  0001 C CNN
F 1 "GND" H 1700 4900 50  0000 C CNN
F 2 "" H 1700 5050 50  0000 C CNN
F 3 "" H 1700 5050 50  0000 C CNN
	1    1700 5050
	1    0    0    -1  
$EndComp
$Comp
L VPP #PWR019
U 1 1 5884D0C2
P 1700 4450
F 0 "#PWR019" H 1700 4300 50  0001 C CNN
F 1 "VPP" H 1700 4600 50  0000 C CNN
F 2 "" H 1700 4450 50  0000 C CNN
F 3 "" H 1700 4450 50  0000 C CNN
	1    1700 4450
	1    0    0    -1  
$EndComp
Text GLabel 2050 4500 1    60   Input Italic 0
D3
$Comp
L JUMPER_3_WAY J3
U 1 1 5884D411
P 1150 5750
F 0 "J3" H 1250 5550 60  0000 C CNN
F 1 "JUMPER_3_WAY" V 1000 5750 60  0001 C CNN
F 2 "LID:WIRE_JUMPER" H 1150 5750 60  0001 C CNN
F 3 "" H 1150 5750 60  0001 C CNN
	1    1150 5750
	1    0    0    -1  
$EndComp
$Comp
L GND #PWR020
U 1 1 5884D417
P 1150 6050
F 0 "#PWR020" H 1150 5800 50  0001 C CNN
F 1 "GND" H 1150 5900 50  0000 C CNN
F 2 "" H 1150 6050 50  0000 C CNN
F 3 "" H 1150 6050 50  0000 C CNN
	1    1150 6050
	1    0    0    -1  
$EndComp
$Comp
L VPP #PWR021
U 1 1 5884D41D
P 1150 5450
F 0 "#PWR021" H 1150 5300 50  0001 C CNN
F 1 "VPP" H 1150 5600 50  0000 C CNN
F 2 "" H 1150 5450 50  0000 C CNN
F 3 "" H 1150 5450 50  0000 C CNN
	1    1150 5450
	1    0    0    -1  
$EndComp
Text GLabel 1500 5500 1    60   Input Italic 0
D4
$Comp
L JUMPER_3_WAY J7
U 1 1 5884D426
P 1700 5750
F 0 "J7" H 1800 5550 60  0000 C CNN
F 1 "JUMPER_3_WAY" V 1550 5750 60  0001 C CNN
F 2 "LID:WIRE_JUMPER" H 1700 5750 60  0001 C CNN
F 3 "" H 1700 5750 60  0001 C CNN
	1    1700 5750
	1    0    0    -1  
$EndComp
$Comp
L GND #PWR022
U 1 1 5884D42C
P 1700 6050
F 0 "#PWR022" H 1700 5800 50  0001 C CNN
F 1 "GND" H 1700 5900 50  0000 C CNN
F 2 "" H 1700 6050 50  0000 C CNN
F 3 "" H 1700 6050 50  0000 C CNN
	1    1700 6050
	1    0    0    -1  
$EndComp
$Comp
L VPP #PWR023
U 1 1 5884D432
P 1700 5450
F 0 "#PWR023" H 1700 5300 50  0001 C CNN
F 1 "VPP" H 1700 5600 50  0000 C CNN
F 2 "" H 1700 5450 50  0000 C CNN
F 3 "" H 1700 5450 50  0000 C CNN
	1    1700 5450
	1    0    0    -1  
$EndComp
Text GLabel 2050 5500 1    60   Input Italic 0
D5
$Comp
L JUMPER_3_WAY J4
U 1 1 5884D43B
P 1150 6750
F 0 "J4" H 1250 6550 60  0000 C CNN
F 1 "JUMPER_3_WAY" V 1000 6750 60  0001 C CNN
F 2 "LID:WIRE_JUMPER" H 1150 6750 60  0001 C CNN
F 3 "" H 1150 6750 60  0001 C CNN
	1    1150 6750
	1    0    0    -1  
$EndComp
$Comp
L GND #PWR024
U 1 1 5884D441
P 1150 7050
F 0 "#PWR024" H 1150 6800 50  0001 C CNN
F 1 "GND" H 1150 6900 50  0000 C CNN
F 2 "" H 1150 7050 50  0000 C CNN
F 3 "" H 1150 7050 50  0000 C CNN
	1    1150 7050
	1    0    0    -1  
$EndComp
$Comp
L VPP #PWR025
U 1 1 5884D447
P 1150 6450
F 0 "#PWR025" H 1150 6300 50  0001 C CNN
F 1 "VPP" H 1150 6600 50  0000 C CNN
F 2 "" H 1150 6450 50  0000 C CNN
F 3 "" H 1150 6450 50  0000 C CNN
	1    1150 6450
	1    0    0    -1  
$EndComp
Text GLabel 1500 6500 1    60   Input Italic 0
D6
$Comp
L JUMPER_3_WAY J8
U 1 1 5884D450
P 1700 6750
F 0 "J8" H 1800 6550 60  0000 C CNN
F 1 "JUMPER_3_WAY" V 1550 6750 60  0001 C CNN
F 2 "LID:WIRE_JUMPER" H 1700 6750 60  0001 C CNN
F 3 "" H 1700 6750 60  0001 C CNN
	1    1700 6750
	1    0    0    -1  
$EndComp
$Comp
L GND #PWR026
U 1 1 5884D456
P 1700 7050
F 0 "#PWR026" H 1700 6800 50  0001 C CNN
F 1 "GND" H 1700 6900 50  0000 C CNN
F 2 "" H 1700 7050 50  0000 C CNN
F 3 "" H 1700 7050 50  0000 C CNN
	1    1700 7050
	1    0    0    -1  
$EndComp
$Comp
L VPP #PWR027
U 1 1 5884D45C
P 1700 6450
F 0 "#PWR027" H 1700 6300 50  0001 C CNN
F 1 "VPP" H 1700 6600 50  0000 C CNN
F 2 "" H 1700 6450 50  0000 C CNN
F 3 "" H 1700 6450 50  0000 C CNN
	1    1700 6450
	1    0    0    -1  
$EndComp
Text GLabel 2050 6500 1    60   Input Italic 0
D7
Text Notes 2800 2400 0    60   ~ 0
OPTIONAL
$Comp
L VREG U1
U 1 1 589FB144
P 1800 1250
F 0 "U1" H 1800 1537 60  0000 C CNN
F 1 "LD1117V33" H 1800 1431 60  0000 C CNN
F 2 "TO_SOT_Packages_THT:TO-220_Neutral123_Vertical" H -1150 500 60  0001 C CNN
F 3 "http://www.mouser.com/ds/2/389/ld1117-974075.pdf" H -1150 500 60  0001 C CNN
F 4 "http://www.mouser.com/ProductDetail/STMicroelectronics/LD1117V33/?qs=sGAEpiMZZMsGz1a6aV8DcCz10aAT%252bcfyfixmM%2FM6hTA%3D" H 1800 1250 60  0001 C CNN "Order Link"
	1    1800 1250
	1    0    0    -1  
$EndComp
Wire Wire Line
	8700 3150 9750 3150
Wire Wire Line
	3400 3550 3550 3550
Wire Wire Line
	3650 1900 3400 1900
Wire Wire Line
	3400 1250 3400 3550
Wire Wire Line
	3550 4750 3400 4750
Wire Wire Line
	3400 4750 3400 5850
Wire Wire Line
	8850 3250 8700 3250
Wire Wire Line
	8700 3350 8950 3350
Wire Wire Line
	9600 3350 9750 3350
Wire Wire Line
	8700 3450 8850 3450
Wire Wire Line
	8850 3450 8850 3350
Connection ~ 8850 3150
Wire Wire Line
	4650 3250 7700 3250
Wire Wire Line
	4650 3250 4650 3800
Wire Wire Line
	4650 3800 4550 3800
Wire Wire Line
	4550 4650 4650 4650
Wire Wire Line
	4650 4650 4650 5700
Wire Wire Line
	9750 3050 9600 3050
Wire Wire Line
	9600 3050 9600 2900
Wire Wire Line
	9600 3350 9600 3500
Wire Wire Line
	8950 3250 9750 3250
Wire Wire Line
	8950 3350 8950 3250
Connection ~ 8850 3350
Wire Wire Line
	9300 1850 9750 1850
Wire Wire Line
	9600 2050 9750 2050
Wire Wire Line
	9750 1750 9600 1750
Wire Wire Line
	9600 1750 9600 1600
Wire Wire Line
	9600 2050 9600 2200
Wire Wire Line
	9400 1950 9750 1950
Wire Wire Line
	9400 1950 9400 3250
Connection ~ 9400 3250
Wire Wire Line
	9300 1850 9300 3150
Connection ~ 9300 3150
Wire Wire Line
	4450 1900 4350 1900
Wire Wire Line
	4050 1900 3950 1900
Wire Wire Line
	4050 3250 4050 3050
Wire Wire Line
	4050 3050 4400 3050
Wire Wire Line
	4400 3050 4400 3150
Wire Wire Line
	5200 3150 7700 3150
Wire Wire Line
	5200 2950 5200 3950
Wire Wire Line
	4550 4550 5200 4550
Wire Wire Line
	5200 4250 5200 4650
Wire Wire Line
	5500 4850 5600 4850
Wire Wire Line
	5600 3350 5600 5200
Wire Wire Line
	6400 4850 6500 4850
Wire Wire Line
	6500 3450 6500 5200
Wire Wire Line
	5600 5700 5600 5500
Connection ~ 4650 5700
Wire Wire Line
	6500 5700 6500 5500
Connection ~ 5600 5700
Wire Wire Line
	5200 5700 5200 5050
Connection ~ 5200 5700
Wire Wire Line
	6100 5700 6100 5050
Connection ~ 6100 5700
Wire Wire Line
	5600 3350 7700 3350
Connection ~ 5600 4850
Wire Wire Line
	6500 3450 7700 3450
Connection ~ 6500 4850
Wire Wire Line
	4550 4450 6100 4450
Wire Wire Line
	6100 4250 6100 4650
Connection ~ 5200 3150
Wire Wire Line
	6100 3950 6100 3150
Connection ~ 6100 3150
Connection ~ 5200 4550
Connection ~ 6100 4450
Wire Wire Line
	7050 3950 7050 3250
Connection ~ 7050 3250
Wire Wire Line
	7050 5700 7050 4250
Connection ~ 6500 5700
Wire Wire Line
	5000 1700 5000 1900
Wire Wire Line
	5000 1900 4750 1900
Wire Wire Line
	850  1250 1300 1250
Wire Wire Line
	850  1250 850  1100
Wire Wire Line
	1800 1700 1800 2650
Wire Wire Line
	1000 1250 1000 1800
Wire Wire Line
	1000 2100 1000 2250
Wire Wire Line
	1000 2250 2850 2250
Connection ~ 1800 2250
Wire Wire Line
	2600 2250 2600 2100
Wire Wire Line
	2600 1250 2600 1800
Connection ~ 2600 1250
Connection ~ 3400 1900
Wire Wire Line
	3400 5700 7050 5700
Connection ~ 2600 2250
Wire Wire Line
	3150 2250 3400 2250
Connection ~ 3400 2250
Wire Wire Line
	3250 4450 3550 4450
Wire Wire Line
	3450 4350 3550 4350
Wire Wire Line
	3250 4250 3550 4250
Wire Wire Line
	3450 4150 3550 4150
Wire Wire Line
	3250 4050 3550 4050
Wire Wire Line
	3450 3950 3550 3950
Wire Wire Line
	3250 3850 3550 3850
Wire Wire Line
	3450 3750 3550 3750
Wire Wire Line
	1450 3750 1500 3750
Wire Wire Line
	1500 3750 1500 3500
Wire Wire Line
	2000 3750 2050 3750
Wire Wire Line
	2050 3750 2050 3500
Wire Wire Line
	1450 4750 1500 4750
Wire Wire Line
	1500 4750 1500 4500
Wire Wire Line
	2000 4750 2050 4750
Wire Wire Line
	2050 4750 2050 4500
Wire Wire Line
	1450 5750 1500 5750
Wire Wire Line
	1500 5750 1500 5500
Wire Wire Line
	2000 5750 2050 5750
Wire Wire Line
	2050 5750 2050 5500
Wire Wire Line
	1450 6750 1500 6750
Wire Wire Line
	1500 6750 1500 6500
Wire Wire Line
	2000 6750 2050 6750
Wire Wire Line
	2050 6750 2050 6500
Wire Notes Line
	700  800  700  2900
Wire Notes Line
	700  2900 2450 2900
Wire Notes Line
	2450 2900 2450 800 
Wire Notes Line
	2450 800  700  800 
Connection ~ 1000 1250
Wire Wire Line
	8850 3250 8850 3150
Wire Wire Line
	2300 1250 3400 1250
Connection ~ 3400 5700
$EndSCHEMATC
